solid OpenSCAD_Model
  facet normal -1 0 0
    outer loop
      vertex 0 1.75 4
      vertex 0 10.25 5
      vertex 0 10.25 4
    endloop
  endfacet
  facet normal -1 -0 0
    outer loop
      vertex 0 10.25 5
      vertex 0 1.75 4
      vertex 0 1.75 5
    endloop
  endfacet
  facet normal -1 0 0
    outer loop
      vertex 0 13.75 4
      vertex 0 22.25 5
      vertex 0 22.25 4
    endloop
  endfacet
  facet normal -1 -0 0
    outer loop
      vertex 0 22.25 5
      vertex 0 13.75 4
      vertex 0 13.75 5
    endloop
  endfacet
  facet normal -1 0 0
    outer loop
      vertex 0 25.75 4
      vertex 0 34.25 5
      vertex 0 34.25 4
    endloop
  endfacet
  facet normal -1 -0 0
    outer loop
      vertex 0 34.25 5
      vertex 0 25.75 4
      vertex 0 25.75 5
    endloop
  endfacet
  facet normal -1 0 0
    outer loop
      vertex 0 37.75 4
      vertex 0 46.25 5
      vertex 0 46.25 4
    endloop
  endfacet
  facet normal -1 -0 0
    outer loop
      vertex 0 46.25 5
      vertex 0 37.75 4
      vertex 0 37.75 5
    endloop
  endfacet
  facet normal -1 0 0
    outer loop
      vertex 0 49.75 4
      vertex 0 58.25 5
      vertex 0 58.25 4
    endloop
  endfacet
  facet normal -1 -0 0
    outer loop
      vertex 0 58.25 5
      vertex 0 49.75 4
      vertex 0 49.75 5
    endloop
  endfacet
  facet normal -1 0 0
    outer loop
      vertex 0 61.75 4
      vertex 0 70.25 5
      vertex 0 70.25 4
    endloop
  endfacet
  facet normal -1 -0 0
    outer loop
      vertex 0 70.25 5
      vertex 0 61.75 4
      vertex 0 61.75 5
    endloop
  endfacet
  facet normal -1 0 0
    outer loop
      vertex 0 73.75 4
      vertex 0 82.25 5
      vertex 0 82.25 4
    endloop
  endfacet
  facet normal -1 -0 0
    outer loop
      vertex 0 82.25 5
      vertex 0 73.75 4
      vertex 0 73.75 5
    endloop
  endfacet
  facet normal -1 0 0
    outer loop
      vertex 0 85.75 4
      vertex 0 94.25 5
      vertex 0 94.25 4
    endloop
  endfacet
  facet normal -1 -0 0
    outer loop
      vertex 0 94.25 5
      vertex 0 85.75 4
      vertex 0 85.75 5
    endloop
  endfacet
  facet normal -1 0 0
    outer loop
      vertex 0 97.75 4
      vertex 0 106.25 5
      vertex 0 106.25 4
    endloop
  endfacet
  facet normal -1 -0 0
    outer loop
      vertex 0 106.25 5
      vertex 0 97.75 4
      vertex 0 97.75 5
    endloop
  endfacet
  facet normal -1 0 0
    outer loop
      vertex 0 109.75 4
      vertex 0 118.25 5
      vertex 0 118.25 4
    endloop
  endfacet
  facet normal -1 -0 0
    outer loop
      vertex 0 118.25 5
      vertex 0 109.75 4
      vertex 0 109.75 5
    endloop
  endfacet
  facet normal -1 0 0
    outer loop
      vertex 0 118.25 3
      vertex 0 120.01 4
      vertex 0 120.01 0
    endloop
  endfacet
  facet normal -1 0 0
    outer loop
      vertex 0 118.25 4
      vertex 0 120.01 4
      vertex 0 118.25 3
    endloop
  endfacet
  facet normal -1 0 0
    outer loop
      vertex 0 120.01 0
      vertex 0 115.25 1
      vertex 0 118.25 3
    endloop
  endfacet
  facet normal -1 0 0
    outer loop
      vertex 0 120.01 0
      vertex 0 110.75 1
      vertex 0 115.25 1
    endloop
  endfacet
  facet normal -1 0 0
    outer loop
      vertex 0 110.75 1
      vertex 0 109.75 3
      vertex 0 110.75 3
    endloop
  endfacet
  facet normal -1 0 0
    outer loop
      vertex 0 106.25 4
      vertex 0 109.75 4
      vertex 0 109.75 3
    endloop
  endfacet
  facet normal -1 0 0
    outer loop
      vertex 0 109.75 4
      vertex 0 106.25 4
      vertex 0 109.75 5
    endloop
  endfacet
  facet normal -1 0 0
    outer loop
      vertex 0 106.25 4
      vertex 0 109.75 3
      vertex 0 106.25 3
    endloop
  endfacet
  facet normal -1 0 0
    outer loop
      vertex 0 110.75 1
      vertex 0 106.25 3
      vertex 0 109.75 3
    endloop
  endfacet
  facet normal -1 0 0
    outer loop
      vertex 0 110.75 1
      vertex 0 103.25 1
      vertex 0 106.25 3
    endloop
  endfacet
  facet normal -1 0 0
    outer loop
      vertex 0 120.01 0
      vertex 0 103.25 1
      vertex 0 110.75 1
    endloop
  endfacet
  facet normal -1 0 0
    outer loop
      vertex 0 120.01 0
      vertex 0 98.75 1
      vertex 0 103.25 1
    endloop
  endfacet
  facet normal -1 0 0
    outer loop
      vertex 0 98.75 1
      vertex 0 97.75 3
      vertex 0 98.75 3
    endloop
  endfacet
  facet normal -1 0 0
    outer loop
      vertex 0 94.25 4
      vertex 0 97.75 4
      vertex 0 97.75 3
    endloop
  endfacet
  facet normal -1 0 0
    outer loop
      vertex 0 97.75 4
      vertex 0 94.25 4
      vertex 0 97.75 5
    endloop
  endfacet
  facet normal -1 0 0
    outer loop
      vertex 0 94.25 4
      vertex 0 97.75 3
      vertex 0 94.25 3
    endloop
  endfacet
  facet normal -1 0 0
    outer loop
      vertex 0 98.75 1
      vertex 0 94.25 3
      vertex 0 97.75 3
    endloop
  endfacet
  facet normal -1 0 0
    outer loop
      vertex 0 98.75 1
      vertex 0 91.25 1
      vertex 0 94.25 3
    endloop
  endfacet
  facet normal -1 0 0
    outer loop
      vertex 0 120.01 0
      vertex 0 91.25 1
      vertex 0 98.75 1
    endloop
  endfacet
  facet normal -1 0 0
    outer loop
      vertex 0 120.01 0
      vertex 0 86.75 1
      vertex 0 91.25 1
    endloop
  endfacet
  facet normal -1 0 0
    outer loop
      vertex 0 86.75 1
      vertex 0 85.75 3
      vertex 0 86.75 3
    endloop
  endfacet
  facet normal -1 0 0
    outer loop
      vertex 0 82.25 4
      vertex 0 85.75 4
      vertex 0 85.75 3
    endloop
  endfacet
  facet normal -1 0 0
    outer loop
      vertex 0 85.75 4
      vertex 0 82.25 4
      vertex 0 85.75 5
    endloop
  endfacet
  facet normal -1 0 0
    outer loop
      vertex 0 82.25 4
      vertex 0 85.75 3
      vertex 0 82.25 3
    endloop
  endfacet
  facet normal -1 0 0
    outer loop
      vertex 0 86.75 1
      vertex 0 82.25 3
      vertex 0 85.75 3
    endloop
  endfacet
  facet normal -1 0 0
    outer loop
      vertex 0 86.75 1
      vertex 0 79.25 1
      vertex 0 82.25 3
    endloop
  endfacet
  facet normal -1 0 0
    outer loop
      vertex 0 120.01 0
      vertex 0 79.25 1
      vertex 0 86.75 1
    endloop
  endfacet
  facet normal -1 0 0
    outer loop
      vertex 0 120.01 0
      vertex 0 74.75 1
      vertex 0 79.25 1
    endloop
  endfacet
  facet normal -1 0 0
    outer loop
      vertex 0 74.75 1
      vertex 0 73.75 3
      vertex 0 74.75 3
    endloop
  endfacet
  facet normal -1 0 0
    outer loop
      vertex 0 70.25 4
      vertex 0 73.75 4
      vertex 0 73.75 3
    endloop
  endfacet
  facet normal -1 0 0
    outer loop
      vertex 0 73.75 4
      vertex 0 70.25 4
      vertex 0 73.75 5
    endloop
  endfacet
  facet normal -1 0 0
    outer loop
      vertex 0 70.25 4
      vertex 0 73.75 3
      vertex 0 70.25 3
    endloop
  endfacet
  facet normal -1 0 0
    outer loop
      vertex 0 74.75 1
      vertex 0 70.25 3
      vertex 0 73.75 3
    endloop
  endfacet
  facet normal -1 0 0
    outer loop
      vertex 0 74.75 1
      vertex 0 67.25 1
      vertex 0 70.25 3
    endloop
  endfacet
  facet normal -1 0 0
    outer loop
      vertex 0 120.01 0
      vertex 0 67.25 1
      vertex 0 74.75 1
    endloop
  endfacet
  facet normal -1 0 0
    outer loop
      vertex 0 120.01 0
      vertex 0 62.75 1
      vertex 0 67.25 1
    endloop
  endfacet
  facet normal -1 0 0
    outer loop
      vertex 0 62.75 1
      vertex 0 61.75 3
      vertex 0 62.75 3
    endloop
  endfacet
  facet normal -1 0 0
    outer loop
      vertex 0 58.25 4
      vertex 0 61.75 4
      vertex 0 61.75 3
    endloop
  endfacet
  facet normal -1 0 0
    outer loop
      vertex 0 61.75 4
      vertex 0 58.25 4
      vertex 0 61.75 5
    endloop
  endfacet
  facet normal -1 0 0
    outer loop
      vertex 0 58.25 4
      vertex 0 61.75 3
      vertex 0 58.25 3
    endloop
  endfacet
  facet normal -1 0 0
    outer loop
      vertex 0 62.75 1
      vertex 0 58.25 3
      vertex 0 61.75 3
    endloop
  endfacet
  facet normal -1 0 0
    outer loop
      vertex 0 62.75 1
      vertex 0 55.25 1
      vertex 0 58.25 3
    endloop
  endfacet
  facet normal -1 0 0
    outer loop
      vertex 0 120.01 0
      vertex 0 55.25 1
      vertex 0 62.75 1
    endloop
  endfacet
  facet normal -1 0 0
    outer loop
      vertex 0 120.01 0
      vertex 0 50.75 1
      vertex 0 55.25 1
    endloop
  endfacet
  facet normal -1 0 0
    outer loop
      vertex 0 50.75 1
      vertex 0 49.75 3
      vertex 0 50.75 3
    endloop
  endfacet
  facet normal -1 0 0
    outer loop
      vertex 0 46.25 4
      vertex 0 49.75 4
      vertex 0 49.75 3
    endloop
  endfacet
  facet normal -1 0 0
    outer loop
      vertex 0 49.75 4
      vertex 0 46.25 4
      vertex 0 49.75 5
    endloop
  endfacet
  facet normal -1 0 0
    outer loop
      vertex 0 46.25 4
      vertex 0 49.75 3
      vertex 0 46.25 3
    endloop
  endfacet
  facet normal -1 0 0
    outer loop
      vertex 0 50.75 1
      vertex 0 46.25 3
      vertex 0 49.75 3
    endloop
  endfacet
  facet normal -1 0 0
    outer loop
      vertex 0 50.75 1
      vertex 0 43.25 1
      vertex 0 46.25 3
    endloop
  endfacet
  facet normal -1 0 0
    outer loop
      vertex 0 120.01 0
      vertex 0 43.25 1
      vertex 0 50.75 1
    endloop
  endfacet
  facet normal -1 0 0
    outer loop
      vertex 0 -0.00999451 0
      vertex 0 43.25 1
      vertex 0 120.01 0
    endloop
  endfacet
  facet normal -1 0 0
    outer loop
      vertex 0 38.75 1
      vertex 0 37.75 3
      vertex 0 38.75 3
    endloop
  endfacet
  facet normal -1 0 0
    outer loop
      vertex 0 34.25 4
      vertex 0 37.75 4
      vertex 0 37.75 3
    endloop
  endfacet
  facet normal -1 0 0
    outer loop
      vertex 0 37.75 4
      vertex 0 34.25 4
      vertex 0 37.75 5
    endloop
  endfacet
  facet normal -1 0 0
    outer loop
      vertex 0 34.25 4
      vertex 0 37.75 3
      vertex 0 34.25 3
    endloop
  endfacet
  facet normal -1 0 0
    outer loop
      vertex 0 38.75 1
      vertex 0 34.25 3
      vertex 0 37.75 3
    endloop
  endfacet
  facet normal -1 0 0
    outer loop
      vertex 0 38.75 1
      vertex 0 31.25 1
      vertex 0 34.25 3
    endloop
  endfacet
  facet normal -1 -0 0
    outer loop
      vertex 0 43.25 1
      vertex 0 -0.00999451 0
      vertex 0 38.75 1
    endloop
  endfacet
  facet normal -1 -0 0
    outer loop
      vertex 0 38.75 1
      vertex 0 -0.00999451 0
      vertex 0 31.25 1
    endloop
  endfacet
  facet normal -1 0 0
    outer loop
      vertex 0 26.75 1
      vertex 0 25.75 3
      vertex 0 26.75 3
    endloop
  endfacet
  facet normal -1 0 0
    outer loop
      vertex 0 22.25 4
      vertex 0 25.75 4
      vertex 0 25.75 3
    endloop
  endfacet
  facet normal -1 0 0
    outer loop
      vertex 0 25.75 4
      vertex 0 22.25 4
      vertex 0 25.75 5
    endloop
  endfacet
  facet normal -1 0 0
    outer loop
      vertex 0 22.25 4
      vertex 0 25.75 3
      vertex 0 22.25 3
    endloop
  endfacet
  facet normal -1 0 0
    outer loop
      vertex 0 26.75 1
      vertex 0 22.25 3
      vertex 0 25.75 3
    endloop
  endfacet
  facet normal -1 0 0
    outer loop
      vertex 0 26.75 1
      vertex 0 19.25 1
      vertex 0 22.25 3
    endloop
  endfacet
  facet normal -1 -0 0
    outer loop
      vertex 0 31.25 1
      vertex 0 -0.00999451 0
      vertex 0 26.75 1
    endloop
  endfacet
  facet normal -1 -0 0
    outer loop
      vertex 0 26.75 1
      vertex 0 -0.00999451 0
      vertex 0 19.25 1
    endloop
  endfacet
  facet normal -1 0 0
    outer loop
      vertex 0 14.75 1
      vertex 0 13.75 3
      vertex 0 14.75 3
    endloop
  endfacet
  facet normal -1 0 0
    outer loop
      vertex 0 10.25 4
      vertex 0 13.75 4
      vertex 0 13.75 3
    endloop
  endfacet
  facet normal -1 0 0
    outer loop
      vertex 0 13.75 4
      vertex 0 10.25 4
      vertex 0 13.75 5
    endloop
  endfacet
  facet normal -1 0 0
    outer loop
      vertex 0 10.25 4
      vertex 0 13.75 3
      vertex 0 10.25 3
    endloop
  endfacet
  facet normal -1 0 0
    outer loop
      vertex 0 14.75 1
      vertex 0 10.25 3
      vertex 0 13.75 3
    endloop
  endfacet
  facet normal -1 0 0
    outer loop
      vertex 0 14.75 1
      vertex 0 7.25 1
      vertex 0 10.25 3
    endloop
  endfacet
  facet normal -1 -0 0
    outer loop
      vertex 0 19.25 1
      vertex 0 -0.00999451 0
      vertex 0 14.75 1
    endloop
  endfacet
  facet normal -1 -0 0
    outer loop
      vertex 0 14.75 1
      vertex 0 -0.00999451 0
      vertex 0 7.25 1
    endloop
  endfacet
  facet normal -1 0 0
    outer loop
      vertex 0 2.75 1
      vertex 0 1.75 3
      vertex 0 2.75 3
    endloop
  endfacet
  facet normal -1 0 0
    outer loop
      vertex 0 -0.00999451 7
      vertex 0 1.75 4
      vertex 0 1.75 3
    endloop
  endfacet
  facet normal -1 0 0
    outer loop
      vertex 0 1.75 4
      vertex 0 -0.00999451 7
      vertex 0 1.75 5
    endloop
  endfacet
  facet normal -1 0 0
    outer loop
      vertex 0 -0.00999451 7
      vertex 0 1.75 3
      vertex 0 -0.00999451 0
    endloop
  endfacet
  facet normal -1 -0 0
    outer loop
      vertex 0 2.75 1
      vertex 0 -0.00999451 0
      vertex 0 1.75 3
    endloop
  endfacet
  facet normal -1 -0 0
    outer loop
      vertex 0 7.25 1
      vertex 0 -0.00999451 0
      vertex 0 2.75 1
    endloop
  endfacet
  facet normal -1 0 0
    outer loop
      vertex 0 118.25 5
      vertex 0 120.01 4
      vertex 0 118.25 4
    endloop
  endfacet
  facet normal -1 0 0
    outer loop
      vertex 0 120.01 4
      vertex 0 118.25 5
      vertex 0 120.01 7
    endloop
  endfacet
  facet normal -1 0 0
    outer loop
      vertex 0 118.25 6
      vertex 0 120.01 7
      vertex 0 118.25 5
    endloop
  endfacet
  facet normal -1 0 0
    outer loop
      vertex 0 109.75 6
      vertex 0 120.01 7
      vertex 0 118.25 6
    endloop
  endfacet
  facet normal -1 0 0
    outer loop
      vertex 0 106.25 5
      vertex 0 109.75 5
      vertex 0 106.25 4
    endloop
  endfacet
  facet normal -1 0 0
    outer loop
      vertex 0 109.75 5
      vertex 0 106.25 5
      vertex 0 109.75 6
    endloop
  endfacet
  facet normal -1 0 0
    outer loop
      vertex 0 106.25 6
      vertex 0 109.75 6
      vertex 0 106.25 5
    endloop
  endfacet
  facet normal -1 0 0
    outer loop
      vertex 0 106.25 6
      vertex 0 120.01 7
      vertex 0 109.75 6
    endloop
  endfacet
  facet normal -1 0 0
    outer loop
      vertex 0 97.75 6
      vertex 0 120.01 7
      vertex 0 106.25 6
    endloop
  endfacet
  facet normal -1 0 0
    outer loop
      vertex 0 94.25 5
      vertex 0 97.75 5
      vertex 0 94.25 4
    endloop
  endfacet
  facet normal -1 0 0
    outer loop
      vertex 0 97.75 5
      vertex 0 94.25 5
      vertex 0 97.75 6
    endloop
  endfacet
  facet normal -1 0 0
    outer loop
      vertex 0 94.25 6
      vertex 0 97.75 6
      vertex 0 94.25 5
    endloop
  endfacet
  facet normal -1 0 0
    outer loop
      vertex 0 94.25 6
      vertex 0 120.01 7
      vertex 0 97.75 6
    endloop
  endfacet
  facet normal -1 0 0
    outer loop
      vertex 0 85.75 6
      vertex 0 120.01 7
      vertex 0 94.25 6
    endloop
  endfacet
  facet normal -1 0 0
    outer loop
      vertex 0 82.25 5
      vertex 0 85.75 5
      vertex 0 82.25 4
    endloop
  endfacet
  facet normal -1 0 0
    outer loop
      vertex 0 85.75 5
      vertex 0 82.25 5
      vertex 0 85.75 6
    endloop
  endfacet
  facet normal -1 0 0
    outer loop
      vertex 0 82.25 6
      vertex 0 85.75 6
      vertex 0 82.25 5
    endloop
  endfacet
  facet normal -1 0 0
    outer loop
      vertex 0 82.25 6
      vertex 0 120.01 7
      vertex 0 85.75 6
    endloop
  endfacet
  facet normal -1 0 0
    outer loop
      vertex 0 73.75 6
      vertex 0 120.01 7
      vertex 0 82.25 6
    endloop
  endfacet
  facet normal -1 0 0
    outer loop
      vertex 0 70.25 5
      vertex 0 73.75 5
      vertex 0 70.25 4
    endloop
  endfacet
  facet normal -1 0 0
    outer loop
      vertex 0 73.75 5
      vertex 0 70.25 5
      vertex 0 73.75 6
    endloop
  endfacet
  facet normal -1 0 0
    outer loop
      vertex 0 70.25 6
      vertex 0 73.75 6
      vertex 0 70.25 5
    endloop
  endfacet
  facet normal -1 0 0
    outer loop
      vertex 0 70.25 6
      vertex 0 120.01 7
      vertex 0 73.75 6
    endloop
  endfacet
  facet normal -1 0 0
    outer loop
      vertex 0 61.75 6
      vertex 0 120.01 7
      vertex 0 70.25 6
    endloop
  endfacet
  facet normal -1 0 0
    outer loop
      vertex 0 58.25 5
      vertex 0 61.75 5
      vertex 0 58.25 4
    endloop
  endfacet
  facet normal -1 0 0
    outer loop
      vertex 0 61.75 5
      vertex 0 58.25 5
      vertex 0 61.75 6
    endloop
  endfacet
  facet normal -1 0 0
    outer loop
      vertex 0 58.25 6
      vertex 0 61.75 6
      vertex 0 58.25 5
    endloop
  endfacet
  facet normal -1 0 0
    outer loop
      vertex 0 58.25 6
      vertex 0 120.01 7
      vertex 0 61.75 6
    endloop
  endfacet
  facet normal -1 0 0
    outer loop
      vertex 0 49.75 6
      vertex 0 120.01 7
      vertex 0 58.25 6
    endloop
  endfacet
  facet normal -1 0 0
    outer loop
      vertex 0 46.25 5
      vertex 0 49.75 5
      vertex 0 46.25 4
    endloop
  endfacet
  facet normal -1 0 0
    outer loop
      vertex 0 49.75 5
      vertex 0 46.25 5
      vertex 0 49.75 6
    endloop
  endfacet
  facet normal -1 0 0
    outer loop
      vertex 0 46.25 6
      vertex 0 49.75 6
      vertex 0 46.25 5
    endloop
  endfacet
  facet normal -1 0 0
    outer loop
      vertex 0 46.25 6
      vertex 0 120.01 7
      vertex 0 49.75 6
    endloop
  endfacet
  facet normal -1 0 0
    outer loop
      vertex 0 -0.00999451 7
      vertex 0 46.25 6
      vertex 0 37.75 6
    endloop
  endfacet
  facet normal -1 0 0
    outer loop
      vertex 0 34.25 5
      vertex 0 37.75 5
      vertex 0 34.25 4
    endloop
  endfacet
  facet normal -1 0 0
    outer loop
      vertex 0 37.75 5
      vertex 0 34.25 5
      vertex 0 37.75 6
    endloop
  endfacet
  facet normal -1 0 0
    outer loop
      vertex 0 34.25 6
      vertex 0 37.75 6
      vertex 0 34.25 5
    endloop
  endfacet
  facet normal -1 0 0
    outer loop
      vertex 0 -0.00999451 7
      vertex 0 37.75 6
      vertex 0 34.25 6
    endloop
  endfacet
  facet normal -1 0 0
    outer loop
      vertex 0 -0.00999451 7
      vertex 0 34.25 6
      vertex 0 25.75 6
    endloop
  endfacet
  facet normal -1 0 0
    outer loop
      vertex 0 22.25 5
      vertex 0 25.75 5
      vertex 0 22.25 4
    endloop
  endfacet
  facet normal -1 0 0
    outer loop
      vertex 0 25.75 5
      vertex 0 22.25 5
      vertex 0 25.75 6
    endloop
  endfacet
  facet normal -1 0 0
    outer loop
      vertex 0 22.25 6
      vertex 0 25.75 6
      vertex 0 22.25 5
    endloop
  endfacet
  facet normal -1 0 0
    outer loop
      vertex 0 -0.00999451 7
      vertex 0 25.75 6
      vertex 0 22.25 6
    endloop
  endfacet
  facet normal -1 0 0
    outer loop
      vertex 0 -0.00999451 7
      vertex 0 22.25 6
      vertex 0 13.75 6
    endloop
  endfacet
  facet normal -1 0 0
    outer loop
      vertex 0 10.25 5
      vertex 0 13.75 5
      vertex 0 10.25 4
    endloop
  endfacet
  facet normal -1 0 0
    outer loop
      vertex 0 13.75 5
      vertex 0 10.25 5
      vertex 0 13.75 6
    endloop
  endfacet
  facet normal -1 0 0
    outer loop
      vertex 0 10.25 6
      vertex 0 13.75 6
      vertex 0 10.25 5
    endloop
  endfacet
  facet normal -1 0 0
    outer loop
      vertex 0 -0.00999451 7
      vertex 0 13.75 6
      vertex 0 10.25 6
    endloop
  endfacet
  facet normal -1 0 0
    outer loop
      vertex 0 -0.00999451 7
      vertex 0 10.25 6
      vertex 0 1.75 6
    endloop
  endfacet
  facet normal -1 0 0
    outer loop
      vertex 0 46.25 6
      vertex 0 -0.00999451 7
      vertex 0 120.01 7
    endloop
  endfacet
  facet normal -1 0 0
    outer loop
      vertex 0 1.75 5
      vertex 0 -0.00999451 7
      vertex 0 1.75 6
    endloop
  endfacet
  facet normal -1 -0 0
    outer loop
      vertex 0 118.25 3
      vertex 0 115.25 1
      vertex 0 115.25 3
    endloop
  endfacet
  facet normal -1 -0 0
    outer loop
      vertex 0 106.25 3
      vertex 0 103.25 1
      vertex 0 103.25 3
    endloop
  endfacet
  facet normal -1 -0 0
    outer loop
      vertex 0 94.25 3
      vertex 0 91.25 1
      vertex 0 91.25 3
    endloop
  endfacet
  facet normal -1 -0 0
    outer loop
      vertex 0 82.25 3
      vertex 0 79.25 1
      vertex 0 79.25 3
    endloop
  endfacet
  facet normal -1 -0 0
    outer loop
      vertex 0 70.25 3
      vertex 0 67.25 1
      vertex 0 67.25 3
    endloop
  endfacet
  facet normal -1 -0 0
    outer loop
      vertex 0 58.25 3
      vertex 0 55.25 1
      vertex 0 55.25 3
    endloop
  endfacet
  facet normal -1 -0 0
    outer loop
      vertex 0 46.25 3
      vertex 0 43.25 1
      vertex 0 43.25 3
    endloop
  endfacet
  facet normal -1 -0 0
    outer loop
      vertex 0 34.25 3
      vertex 0 31.25 1
      vertex 0 31.25 3
    endloop
  endfacet
  facet normal -1 -0 0
    outer loop
      vertex 0 22.25 3
      vertex 0 19.25 1
      vertex 0 19.25 3
    endloop
  endfacet
  facet normal -1 -0 0
    outer loop
      vertex 0 10.25 3
      vertex 0 7.25 1
      vertex 0 7.25 3
    endloop
  endfacet
  facet normal 1 0 0
    outer loop
      vertex 29 2.75 3
      vertex 29 1.75 3
      vertex 29 2.75 1
    endloop
  endfacet
  facet normal 1 0 0
    outer loop
      vertex 29 14.75 3
      vertex 29 13.75 3
      vertex 29 14.75 1
    endloop
  endfacet
  facet normal 1 0 0
    outer loop
      vertex 29 26.75 3
      vertex 29 25.75 3
      vertex 29 26.75 1
    endloop
  endfacet
  facet normal 1 0 0
    outer loop
      vertex 29 38.75 3
      vertex 29 37.75 3
      vertex 29 38.75 1
    endloop
  endfacet
  facet normal 1 0 0
    outer loop
      vertex 29 50.75 3
      vertex 29 49.75 3
      vertex 29 50.75 1
    endloop
  endfacet
  facet normal 1 0 0
    outer loop
      vertex 29 62.75 3
      vertex 29 61.75 3
      vertex 29 62.75 1
    endloop
  endfacet
  facet normal 1 0 0
    outer loop
      vertex 29 74.75 3
      vertex 29 73.75 3
      vertex 29 74.75 1
    endloop
  endfacet
  facet normal 1 0 0
    outer loop
      vertex 29 86.75 3
      vertex 29 85.75 3
      vertex 29 86.75 1
    endloop
  endfacet
  facet normal 1 0 0
    outer loop
      vertex 29 98.75 3
      vertex 29 97.75 3
      vertex 29 98.75 1
    endloop
  endfacet
  facet normal 1 0 0
    outer loop
      vertex 29 110.75 3
      vertex 29 109.75 3
      vertex 29 110.75 1
    endloop
  endfacet
  facet normal 1 0 0
    outer loop
      vertex 29 118.25 4
      vertex 29 120.01 4
      vertex 29 120.01 5
    endloop
  endfacet
  facet normal 1 0 0
    outer loop
      vertex 29 120.01 4
      vertex 29 118.25 4
      vertex 29 118.25 3
    endloop
  endfacet
  facet normal 1 0 0
    outer loop
      vertex 29 120.01 5
      vertex 29 109.75 4
      vertex 29 118.25 4
    endloop
  endfacet
  facet normal 1 0 0
    outer loop
      vertex 29 109.75 4
      vertex 29 106.25 4
      vertex 29 109.75 3
    endloop
  endfacet
  facet normal 1 0 0
    outer loop
      vertex 29 120.01 5
      vertex 29 106.25 4
      vertex 29 109.75 4
    endloop
  endfacet
  facet normal 1 0 0
    outer loop
      vertex 29 120.01 5
      vertex 29 97.75 4
      vertex 29 106.25 4
    endloop
  endfacet
  facet normal 1 0 0
    outer loop
      vertex 29 97.75 4
      vertex 29 94.25 4
      vertex 29 97.75 3
    endloop
  endfacet
  facet normal 1 0 0
    outer loop
      vertex 29 120.01 5
      vertex 29 94.25 4
      vertex 29 97.75 4
    endloop
  endfacet
  facet normal 1 0 0
    outer loop
      vertex 29 120.01 5
      vertex 29 85.75 4
      vertex 29 94.25 4
    endloop
  endfacet
  facet normal 1 0 0
    outer loop
      vertex 29 85.75 4
      vertex 29 82.25 4
      vertex 29 85.75 3
    endloop
  endfacet
  facet normal 1 0 0
    outer loop
      vertex 29 120.01 5
      vertex 29 82.25 4
      vertex 29 85.75 4
    endloop
  endfacet
  facet normal 1 0 0
    outer loop
      vertex 29 120.01 5
      vertex 29 73.75 4
      vertex 29 82.25 4
    endloop
  endfacet
  facet normal 1 0 0
    outer loop
      vertex 29 73.75 4
      vertex 29 70.25 4
      vertex 29 73.75 3
    endloop
  endfacet
  facet normal 1 0 0
    outer loop
      vertex 29 120.01 5
      vertex 29 70.25 4
      vertex 29 73.75 4
    endloop
  endfacet
  facet normal 1 0 0
    outer loop
      vertex 29 120.01 5
      vertex 29 61.75 4
      vertex 29 70.25 4
    endloop
  endfacet
  facet normal 1 0 0
    outer loop
      vertex 29 61.75 4
      vertex 29 58.25 4
      vertex 29 61.75 3
    endloop
  endfacet
  facet normal 1 0 0
    outer loop
      vertex 29 120.01 5
      vertex 29 58.25 4
      vertex 29 61.75 4
    endloop
  endfacet
  facet normal 1 0 0
    outer loop
      vertex 29 120.01 5
      vertex 29 49.75 4
      vertex 29 58.25 4
    endloop
  endfacet
  facet normal 1 0 0
    outer loop
      vertex 29 49.75 4
      vertex 29 46.25 4
      vertex 29 49.75 3
    endloop
  endfacet
  facet normal 1 0 0
    outer loop
      vertex 29 120.01 5
      vertex 29 46.25 4
      vertex 29 49.75 4
    endloop
  endfacet
  facet normal 1 -0 0
    outer loop
      vertex 29 -0.00999451 5
      vertex 29 46.25 4
      vertex 29 120.01 5
    endloop
  endfacet
  facet normal 1 0 0
    outer loop
      vertex 29 37.75 4
      vertex 29 34.25 4
      vertex 29 37.75 3
    endloop
  endfacet
  facet normal 1 0 0
    outer loop
      vertex 29 46.25 4
      vertex 29 -0.00999451 5
      vertex 29 37.75 4
    endloop
  endfacet
  facet normal 1 0 0
    outer loop
      vertex 29 37.75 4
      vertex 29 -0.00999451 5
      vertex 29 34.25 4
    endloop
  endfacet
  facet normal 1 0 0
    outer loop
      vertex 29 25.75 4
      vertex 29 22.25 4
      vertex 29 25.75 3
    endloop
  endfacet
  facet normal 1 0 0
    outer loop
      vertex 29 34.25 4
      vertex 29 -0.00999451 5
      vertex 29 25.75 4
    endloop
  endfacet
  facet normal 1 0 0
    outer loop
      vertex 29 25.75 4
      vertex 29 -0.00999451 5
      vertex 29 22.25 4
    endloop
  endfacet
  facet normal 1 0 0
    outer loop
      vertex 29 13.75 4
      vertex 29 10.25 4
      vertex 29 13.75 3
    endloop
  endfacet
  facet normal 1 0 0
    outer loop
      vertex 29 22.25 4
      vertex 29 -0.00999451 5
      vertex 29 13.75 4
    endloop
  endfacet
  facet normal 1 0 0
    outer loop
      vertex 29 13.75 4
      vertex 29 -0.00999451 5
      vertex 29 10.25 4
    endloop
  endfacet
  facet normal 1 0 0
    outer loop
      vertex 29 1.75 4
      vertex 29 -0.00999451 5
      vertex 29 1.75 3
    endloop
  endfacet
  facet normal 1 0 0
    outer loop
      vertex 29 10.25 4
      vertex 29 -0.00999451 5
      vertex 29 1.75 4
    endloop
  endfacet
  facet normal 1 0 0
    outer loop
      vertex 29 120.01 4
      vertex 29 118.25 3
      vertex 29 120.01 0
    endloop
  endfacet
  facet normal 1 0 0
    outer loop
      vertex 29 115.25 1
      vertex 29 118.25 3
      vertex 29 115.25 3
    endloop
  endfacet
  facet normal 1 0 0
    outer loop
      vertex 29 118.25 3
      vertex 29 115.25 1
      vertex 29 120.01 0
    endloop
  endfacet
  facet normal 1 -0 0
    outer loop
      vertex 29 110.75 1
      vertex 29 120.01 0
      vertex 29 115.25 1
    endloop
  endfacet
  facet normal 1 0 0
    outer loop
      vertex 29 106.25 3
      vertex 29 109.75 3
      vertex 29 106.25 4
    endloop
  endfacet
  facet normal 1 0 0
    outer loop
      vertex 29 109.75 3
      vertex 29 106.25 3
      vertex 29 110.75 1
    endloop
  endfacet
  facet normal 1 0 0
    outer loop
      vertex 29 103.25 1
      vertex 29 106.25 3
      vertex 29 103.25 3
    endloop
  endfacet
  facet normal 1 0 0
    outer loop
      vertex 29 106.25 3
      vertex 29 103.25 1
      vertex 29 110.75 1
    endloop
  endfacet
  facet normal 1 -0 0
    outer loop
      vertex 29 103.25 1
      vertex 29 120.01 0
      vertex 29 110.75 1
    endloop
  endfacet
  facet normal 1 -0 0
    outer loop
      vertex 29 98.75 1
      vertex 29 120.01 0
      vertex 29 103.25 1
    endloop
  endfacet
  facet normal 1 0 0
    outer loop
      vertex 29 94.25 3
      vertex 29 97.75 3
      vertex 29 94.25 4
    endloop
  endfacet
  facet normal 1 0 0
    outer loop
      vertex 29 97.75 3
      vertex 29 94.25 3
      vertex 29 98.75 1
    endloop
  endfacet
  facet normal 1 0 0
    outer loop
      vertex 29 91.25 1
      vertex 29 94.25 3
      vertex 29 91.25 3
    endloop
  endfacet
  facet normal 1 0 0
    outer loop
      vertex 29 94.25 3
      vertex 29 91.25 1
      vertex 29 98.75 1
    endloop
  endfacet
  facet normal 1 -0 0
    outer loop
      vertex 29 91.25 1
      vertex 29 120.01 0
      vertex 29 98.75 1
    endloop
  endfacet
  facet normal 1 -0 0
    outer loop
      vertex 29 86.75 1
      vertex 29 120.01 0
      vertex 29 91.25 1
    endloop
  endfacet
  facet normal 1 0 0
    outer loop
      vertex 29 82.25 3
      vertex 29 85.75 3
      vertex 29 82.25 4
    endloop
  endfacet
  facet normal 1 0 0
    outer loop
      vertex 29 85.75 3
      vertex 29 82.25 3
      vertex 29 86.75 1
    endloop
  endfacet
  facet normal 1 0 0
    outer loop
      vertex 29 79.25 1
      vertex 29 82.25 3
      vertex 29 79.25 3
    endloop
  endfacet
  facet normal 1 0 0
    outer loop
      vertex 29 82.25 3
      vertex 29 79.25 1
      vertex 29 86.75 1
    endloop
  endfacet
  facet normal 1 -0 0
    outer loop
      vertex 29 79.25 1
      vertex 29 120.01 0
      vertex 29 86.75 1
    endloop
  endfacet
  facet normal 1 -0 0
    outer loop
      vertex 29 74.75 1
      vertex 29 120.01 0
      vertex 29 79.25 1
    endloop
  endfacet
  facet normal 1 0 0
    outer loop
      vertex 29 70.25 3
      vertex 29 73.75 3
      vertex 29 70.25 4
    endloop
  endfacet
  facet normal 1 0 0
    outer loop
      vertex 29 73.75 3
      vertex 29 70.25 3
      vertex 29 74.75 1
    endloop
  endfacet
  facet normal 1 0 0
    outer loop
      vertex 29 67.25 1
      vertex 29 70.25 3
      vertex 29 67.25 3
    endloop
  endfacet
  facet normal 1 0 0
    outer loop
      vertex 29 70.25 3
      vertex 29 67.25 1
      vertex 29 74.75 1
    endloop
  endfacet
  facet normal 1 -0 0
    outer loop
      vertex 29 67.25 1
      vertex 29 120.01 0
      vertex 29 74.75 1
    endloop
  endfacet
  facet normal 1 -0 0
    outer loop
      vertex 29 62.75 1
      vertex 29 120.01 0
      vertex 29 67.25 1
    endloop
  endfacet
  facet normal 1 0 0
    outer loop
      vertex 29 58.25 3
      vertex 29 61.75 3
      vertex 29 58.25 4
    endloop
  endfacet
  facet normal 1 0 0
    outer loop
      vertex 29 61.75 3
      vertex 29 58.25 3
      vertex 29 62.75 1
    endloop
  endfacet
  facet normal 1 0 0
    outer loop
      vertex 29 55.25 1
      vertex 29 58.25 3
      vertex 29 55.25 3
    endloop
  endfacet
  facet normal 1 0 0
    outer loop
      vertex 29 58.25 3
      vertex 29 55.25 1
      vertex 29 62.75 1
    endloop
  endfacet
  facet normal 1 -0 0
    outer loop
      vertex 29 55.25 1
      vertex 29 120.01 0
      vertex 29 62.75 1
    endloop
  endfacet
  facet normal 1 -0 0
    outer loop
      vertex 29 50.75 1
      vertex 29 120.01 0
      vertex 29 55.25 1
    endloop
  endfacet
  facet normal 1 0 0
    outer loop
      vertex 29 46.25 3
      vertex 29 49.75 3
      vertex 29 46.25 4
    endloop
  endfacet
  facet normal 1 0 0
    outer loop
      vertex 29 49.75 3
      vertex 29 46.25 3
      vertex 29 50.75 1
    endloop
  endfacet
  facet normal 1 0 0
    outer loop
      vertex 29 43.25 1
      vertex 29 46.25 3
      vertex 29 43.25 3
    endloop
  endfacet
  facet normal 1 0 0
    outer loop
      vertex 29 46.25 3
      vertex 29 43.25 1
      vertex 29 50.75 1
    endloop
  endfacet
  facet normal 1 -0 0
    outer loop
      vertex 29 43.25 1
      vertex 29 120.01 0
      vertex 29 50.75 1
    endloop
  endfacet
  facet normal 1 0 0
    outer loop
      vertex 29 -0.00999451 0
      vertex 29 43.25 1
      vertex 29 38.75 1
    endloop
  endfacet
  facet normal 1 0 0
    outer loop
      vertex 29 34.25 3
      vertex 29 37.75 3
      vertex 29 34.25 4
    endloop
  endfacet
  facet normal 1 0 0
    outer loop
      vertex 29 37.75 3
      vertex 29 34.25 3
      vertex 29 38.75 1
    endloop
  endfacet
  facet normal 1 0 0
    outer loop
      vertex 29 31.25 1
      vertex 29 34.25 3
      vertex 29 31.25 3
    endloop
  endfacet
  facet normal 1 0 0
    outer loop
      vertex 29 34.25 3
      vertex 29 31.25 1
      vertex 29 38.75 1
    endloop
  endfacet
  facet normal 1 0 0
    outer loop
      vertex 29 -0.00999451 0
      vertex 29 38.75 1
      vertex 29 31.25 1
    endloop
  endfacet
  facet normal 1 0 0
    outer loop
      vertex 29 -0.00999451 0
      vertex 29 31.25 1
      vertex 29 26.75 1
    endloop
  endfacet
  facet normal 1 0 0
    outer loop
      vertex 29 22.25 3
      vertex 29 25.75 3
      vertex 29 22.25 4
    endloop
  endfacet
  facet normal 1 0 0
    outer loop
      vertex 29 25.75 3
      vertex 29 22.25 3
      vertex 29 26.75 1
    endloop
  endfacet
  facet normal 1 0 0
    outer loop
      vertex 29 19.25 1
      vertex 29 22.25 3
      vertex 29 19.25 3
    endloop
  endfacet
  facet normal 1 0 0
    outer loop
      vertex 29 22.25 3
      vertex 29 19.25 1
      vertex 29 26.75 1
    endloop
  endfacet
  facet normal 1 0 0
    outer loop
      vertex 29 -0.00999451 0
      vertex 29 26.75 1
      vertex 29 19.25 1
    endloop
  endfacet
  facet normal 1 0 0
    outer loop
      vertex 29 -0.00999451 0
      vertex 29 19.25 1
      vertex 29 14.75 1
    endloop
  endfacet
  facet normal 1 0 0
    outer loop
      vertex 29 10.25 3
      vertex 29 13.75 3
      vertex 29 10.25 4
    endloop
  endfacet
  facet normal 1 0 0
    outer loop
      vertex 29 13.75 3
      vertex 29 10.25 3
      vertex 29 14.75 1
    endloop
  endfacet
  facet normal 1 0 0
    outer loop
      vertex 29 7.25 1
      vertex 29 10.25 3
      vertex 29 7.25 3
    endloop
  endfacet
  facet normal 1 0 0
    outer loop
      vertex 29 10.25 3
      vertex 29 7.25 1
      vertex 29 14.75 1
    endloop
  endfacet
  facet normal 1 0 0
    outer loop
      vertex 29 -0.00999451 0
      vertex 29 14.75 1
      vertex 29 7.25 1
    endloop
  endfacet
  facet normal 1 0 0
    outer loop
      vertex 29 -0.00999451 0
      vertex 29 7.25 1
      vertex 29 2.75 1
    endloop
  endfacet
  facet normal 1 0 0
    outer loop
      vertex 29 -0.00999451 0
      vertex 29 1.75 3
      vertex 29 -0.00999451 5
    endloop
  endfacet
  facet normal 1 0 0
    outer loop
      vertex 29 43.25 1
      vertex 29 -0.00999451 0
      vertex 29 120.01 0
    endloop
  endfacet
  facet normal 1 0 0
    outer loop
      vertex 29 1.75 3
      vertex 29 -0.00999451 0
      vertex 29 2.75 1
    endloop
  endfacet
  facet normal 0 0 1
    outer loop
      vertex 6 1.75 4
      vertex 26 -0.00999451 4
      vertex 26 1.75 4
    endloop
  endfacet
  facet normal 0 0 1
    outer loop
      vertex 26 -0.00999451 4
      vertex 6 1.75 4
      vertex 6 -0.00999451 4
    endloop
  endfacet
  facet normal 0 0 -1
    outer loop
      vertex 0 1.75 4
      vertex 6 10.25 4
      vertex 6 1.75 4
    endloop
  endfacet
  facet normal -0 0 -1
    outer loop
      vertex 6 10.25 4
      vertex 0 1.75 4
      vertex 0 10.25 4
    endloop
  endfacet
  facet normal 0 0 -1
    outer loop
      vertex 26 1.75 4
      vertex 29 10.25 4
      vertex 29 1.75 4
    endloop
  endfacet
  facet normal -0 0 -1
    outer loop
      vertex 29 10.25 4
      vertex 26 1.75 4
      vertex 26 10.25 4
    endloop
  endfacet
  facet normal 0 0 1
    outer loop
      vertex 6 13.75 4
      vertex 26 10.25 4
      vertex 26 13.75 4
    endloop
  endfacet
  facet normal 0 0 1
    outer loop
      vertex 26 10.25 4
      vertex 6 13.75 4
      vertex 6 10.25 4
    endloop
  endfacet
  facet normal 0 -1 0
    outer loop
      vertex 0 10.25 3
      vertex 6 10.25 4
      vertex 0 10.25 4
    endloop
  endfacet
  facet normal -3.28853e-08 -1 1.97312e-07
    outer loop
      vertex 29 10.25 3
      vertex 6 10.25 4
      vertex 0 10.25 3
    endloop
  endfacet
  facet normal -4.76837e-08 -1 -1.43051e-07
    outer loop
      vertex 6 10.25 4
      vertex 29 10.25 3
      vertex 26 10.25 4
    endloop
  endfacet
  facet normal 0 -1 0
    outer loop
      vertex 26 10.25 4
      vertex 29 10.25 3
      vertex 29 10.25 4
    endloop
  endfacet
  facet normal 0 0 1
    outer loop
      vertex 0 10.25 3
      vertex 29 7.25 3
      vertex 29 10.25 3
    endloop
  endfacet
  facet normal 0 0 1
    outer loop
      vertex 29 7.25 3
      vertex 0 10.25 3
      vertex 0 7.25 3
    endloop
  endfacet
  facet normal -3.28853e-08 -1 0
    outer loop
      vertex 0 7.25 1
      vertex 29 7.25 3
      vertex 0 7.25 3
    endloop
  endfacet
  facet normal -3.28853e-08 -1 -0
    outer loop
      vertex 29 7.25 3
      vertex 0 7.25 1
      vertex 29 7.25 1
    endloop
  endfacet
  facet normal 0 0 1
    outer loop
      vertex 0 7.25 1
      vertex 29 2.75 1
      vertex 29 7.25 1
    endloop
  endfacet
  facet normal 0 0 1
    outer loop
      vertex 29 2.75 1
      vertex 0 7.25 1
      vertex 0 2.75 1
    endloop
  endfacet
  facet normal 3.28853e-08 1 -0
    outer loop
      vertex 29 2.75 1
      vertex 0 2.75 3
      vertex 29 2.75 3
    endloop
  endfacet
  facet normal 3.28853e-08 1 0
    outer loop
      vertex 0 2.75 3
      vertex 29 2.75 1
      vertex 0 2.75 1
    endloop
  endfacet
  facet normal 0 0 1
    outer loop
      vertex 0 2.75 3
      vertex 29 1.75 3
      vertex 29 2.75 3
    endloop
  endfacet
  facet normal 0 0 1
    outer loop
      vertex 29 1.75 3
      vertex 0 2.75 3
      vertex 0 1.75 3
    endloop
  endfacet
  facet normal 3.97364e-08 1 -0
    outer loop
      vertex 29 1.75 3
      vertex 26 1.75 4
      vertex 29 1.75 4
    endloop
  endfacet
  facet normal 2.98023e-08 1 -2.98023e-08
    outer loop
      vertex 26 1.75 4
      vertex 29 1.75 3
      vertex 6 1.75 4
    endloop
  endfacet
  facet normal 3.28853e-08 1 4.11067e-08
    outer loop
      vertex 0 1.75 3
      vertex 6 1.75 4
      vertex 29 1.75 3
    endloop
  endfacet
  facet normal 3.97364e-08 1 0
    outer loop
      vertex 6 1.75 4
      vertex 0 1.75 3
      vertex 0 1.75 4
    endloop
  endfacet
  facet normal 0 -1 0
    outer loop
      vertex 0 -0.00999451 7
      vertex 3 -0.00999451 5
      vertex 3 -0.00999451 7
    endloop
  endfacet
  facet normal 0 -1 0
    outer loop
      vertex 3 -0.00999451 5
      vertex 6 -0.00999451 4
      vertex 6 -0.00999451 5
    endloop
  endfacet
  facet normal 0 -1 0
    outer loop
      vertex 29 -0.00999451 0
      vertex 6 -0.00999451 4
      vertex 0 -0.00999451 0
    endloop
  endfacet
  facet normal 0 -1 -0
    outer loop
      vertex 3 -0.00999451 5
      vertex 0 -0.00999451 0
      vertex 6 -0.00999451 4
    endloop
  endfacet
  facet normal 0 -1 0
    outer loop
      vertex 0 -0.00999451 0
      vertex 3 -0.00999451 5
      vertex 0 -0.00999451 7
    endloop
  endfacet
  facet normal 0 -1 0
    outer loop
      vertex 26 -0.00999451 4
      vertex 29 -0.00999451 5
      vertex 26 -0.00999451 5
    endloop
  endfacet
  facet normal 0 -1 0
    outer loop
      vertex 26 -0.00999451 4
      vertex 29 -0.00999451 0
      vertex 29 -0.00999451 5
    endloop
  endfacet
  facet normal 0 -1 0
    outer loop
      vertex 6 -0.00999451 4
      vertex 29 -0.00999451 0
      vertex 26 -0.00999451 4
    endloop
  endfacet
  facet normal 0 0 -1
    outer loop
      vertex 0 -0.00999451 0
      vertex 29 120.01 0
      vertex 29 -0.00999451 0
    endloop
  endfacet
  facet normal -0 0 -1
    outer loop
      vertex 29 120.01 0
      vertex 0 -0.00999451 0
      vertex 0 120.01 0
    endloop
  endfacet
  facet normal 1 0 0
    outer loop
      vertex 6 120.01 5
      vertex 6 118.25 4
      vertex 6 120.01 4
    endloop
  endfacet
  facet normal 1 0 0
    outer loop
      vertex 6 120.01 5
      vertex 6 109.75 4
      vertex 6 118.25 4
    endloop
  endfacet
  facet normal 1 0 0
    outer loop
      vertex 6 120.01 5
      vertex 6 106.25 4
      vertex 6 109.75 4
    endloop
  endfacet
  facet normal 1 0 0
    outer loop
      vertex 6 120.01 5
      vertex 6 97.75 4
      vertex 6 106.25 4
    endloop
  endfacet
  facet normal 1 0 0
    outer loop
      vertex 6 120.01 5
      vertex 6 94.25 4
      vertex 6 97.75 4
    endloop
  endfacet
  facet normal 1 0 0
    outer loop
      vertex 6 120.01 5
      vertex 6 85.75 4
      vertex 6 94.25 4
    endloop
  endfacet
  facet normal 1 0 0
    outer loop
      vertex 6 120.01 5
      vertex 6 82.25 4
      vertex 6 85.75 4
    endloop
  endfacet
  facet normal 1 0 0
    outer loop
      vertex 6 120.01 5
      vertex 6 73.75 4
      vertex 6 82.25 4
    endloop
  endfacet
  facet normal 1 0 0
    outer loop
      vertex 6 120.01 5
      vertex 6 70.25 4
      vertex 6 73.75 4
    endloop
  endfacet
  facet normal 1 0 0
    outer loop
      vertex 6 120.01 5
      vertex 6 61.75 4
      vertex 6 70.25 4
    endloop
  endfacet
  facet normal 1 0 0
    outer loop
      vertex 6 120.01 5
      vertex 6 58.25 4
      vertex 6 61.75 4
    endloop
  endfacet
  facet normal 1 0 0
    outer loop
      vertex 6 120.01 5
      vertex 6 49.75 4
      vertex 6 58.25 4
    endloop
  endfacet
  facet normal 1 0 0
    outer loop
      vertex 6 120.01 5
      vertex 6 46.25 4
      vertex 6 49.75 4
    endloop
  endfacet
  facet normal 1 -0 0
    outer loop
      vertex 6 -0.00999451 5
      vertex 6 46.25 4
      vertex 6 120.01 5
    endloop
  endfacet
  facet normal 1 0 0
    outer loop
      vertex 6 46.25 4
      vertex 6 -0.00999451 5
      vertex 6 37.75 4
    endloop
  endfacet
  facet normal 1 0 0
    outer loop
      vertex 6 37.75 4
      vertex 6 -0.00999451 5
      vertex 6 34.25 4
    endloop
  endfacet
  facet normal 1 0 0
    outer loop
      vertex 6 34.25 4
      vertex 6 -0.00999451 5
      vertex 6 25.75 4
    endloop
  endfacet
  facet normal 1 0 0
    outer loop
      vertex 6 25.75 4
      vertex 6 -0.00999451 5
      vertex 6 22.25 4
    endloop
  endfacet
  facet normal 1 0 0
    outer loop
      vertex 6 22.25 4
      vertex 6 -0.00999451 5
      vertex 6 13.75 4
    endloop
  endfacet
  facet normal 1 0 0
    outer loop
      vertex 6 13.75 4
      vertex 6 -0.00999451 5
      vertex 6 10.25 4
    endloop
  endfacet
  facet normal 1 0 0
    outer loop
      vertex 6 10.25 4
      vertex 6 -0.00999451 5
      vertex 6 1.75 4
    endloop
  endfacet
  facet normal 1 0 0
    outer loop
      vertex 6 1.75 4
      vertex 6 -0.00999451 5
      vertex 6 -0.00999451 4
    endloop
  endfacet
  facet normal -0 0 1
    outer loop
      vertex 0 10.25 5
      vertex 3 1.75 5
      vertex 3 10.25 5
    endloop
  endfacet
  facet normal 0 0 1
    outer loop
      vertex 3 1.75 5
      vertex 0 10.25 5
      vertex 0 1.75 5
    endloop
  endfacet
  facet normal -0 0 1
    outer loop
      vertex 0 22.25 5
      vertex 3 13.75 5
      vertex 3 22.25 5
    endloop
  endfacet
  facet normal 0 0 1
    outer loop
      vertex 3 13.75 5
      vertex 0 22.25 5
      vertex 0 13.75 5
    endloop
  endfacet
  facet normal -0 0 1
    outer loop
      vertex 0 34.25 5
      vertex 3 25.75 5
      vertex 3 34.25 5
    endloop
  endfacet
  facet normal 0 0 1
    outer loop
      vertex 3 25.75 5
      vertex 0 34.25 5
      vertex 0 25.75 5
    endloop
  endfacet
  facet normal -0 0 1
    outer loop
      vertex 0 46.25 5
      vertex 3 37.75 5
      vertex 3 46.25 5
    endloop
  endfacet
  facet normal 0 0 1
    outer loop
      vertex 3 37.75 5
      vertex 0 46.25 5
      vertex 0 37.75 5
    endloop
  endfacet
  facet normal -0 0 1
    outer loop
      vertex 0 58.25 5
      vertex 3 49.75 5
      vertex 3 58.25 5
    endloop
  endfacet
  facet normal 0 0 1
    outer loop
      vertex 3 49.75 5
      vertex 0 58.25 5
      vertex 0 49.75 5
    endloop
  endfacet
  facet normal -0 0 1
    outer loop
      vertex 0 70.25 5
      vertex 3 61.75 5
      vertex 3 70.25 5
    endloop
  endfacet
  facet normal 0 0 1
    outer loop
      vertex 3 61.75 5
      vertex 0 70.25 5
      vertex 0 61.75 5
    endloop
  endfacet
  facet normal -0 0 1
    outer loop
      vertex 0 82.25 5
      vertex 3 73.75 5
      vertex 3 82.25 5
    endloop
  endfacet
  facet normal 0 0 1
    outer loop
      vertex 3 73.75 5
      vertex 0 82.25 5
      vertex 0 73.75 5
    endloop
  endfacet
  facet normal -0 0 1
    outer loop
      vertex 0 94.25 5
      vertex 3 85.75 5
      vertex 3 94.25 5
    endloop
  endfacet
  facet normal 0 0 1
    outer loop
      vertex 3 85.75 5
      vertex 0 94.25 5
      vertex 0 85.75 5
    endloop
  endfacet
  facet normal -0 0 1
    outer loop
      vertex 0 106.25 5
      vertex 3 97.75 5
      vertex 3 106.25 5
    endloop
  endfacet
  facet normal 0 0 1
    outer loop
      vertex 3 97.75 5
      vertex 0 106.25 5
      vertex 0 97.75 5
    endloop
  endfacet
  facet normal -0 0 1
    outer loop
      vertex 0 118.25 5
      vertex 3 109.75 5
      vertex 3 118.25 5
    endloop
  endfacet
  facet normal 0 0 1
    outer loop
      vertex 3 109.75 5
      vertex 0 118.25 5
      vertex 0 109.75 5
    endloop
  endfacet
  facet normal 0 0 1
    outer loop
      vertex 3 118.25 5
      vertex 6 120.01 5
      vertex 3 120.01 5
    endloop
  endfacet
  facet normal 0 0 1
    outer loop
      vertex 3 109.75 5
      vertex 6 120.01 5
      vertex 3 118.25 5
    endloop
  endfacet
  facet normal 0 0 1
    outer loop
      vertex 3 106.25 5
      vertex 6 120.01 5
      vertex 3 109.75 5
    endloop
  endfacet
  facet normal 0 0 1
    outer loop
      vertex 3 97.75 5
      vertex 6 120.01 5
      vertex 3 106.25 5
    endloop
  endfacet
  facet normal 0 0 1
    outer loop
      vertex 3 94.25 5
      vertex 6 120.01 5
      vertex 3 97.75 5
    endloop
  endfacet
  facet normal 0 0 1
    outer loop
      vertex 3 85.75 5
      vertex 6 120.01 5
      vertex 3 94.25 5
    endloop
  endfacet
  facet normal 0 0 1
    outer loop
      vertex 3 82.25 5
      vertex 6 120.01 5
      vertex 3 85.75 5
    endloop
  endfacet
  facet normal 0 0 1
    outer loop
      vertex 3 73.75 5
      vertex 6 120.01 5
      vertex 3 82.25 5
    endloop
  endfacet
  facet normal 0 0 1
    outer loop
      vertex 3 70.25 5
      vertex 6 120.01 5
      vertex 3 73.75 5
    endloop
  endfacet
  facet normal 0 0 1
    outer loop
      vertex 3 61.75 5
      vertex 6 120.01 5
      vertex 3 70.25 5
    endloop
  endfacet
  facet normal 0 0 1
    outer loop
      vertex 6 120.01 5
      vertex 3 61.75 5
      vertex 6 -0.00999451 5
    endloop
  endfacet
  facet normal -0 0 1
    outer loop
      vertex 3 58.25 5
      vertex 6 -0.00999451 5
      vertex 3 61.75 5
    endloop
  endfacet
  facet normal -0 0 1
    outer loop
      vertex 3 49.75 5
      vertex 6 -0.00999451 5
      vertex 3 58.25 5
    endloop
  endfacet
  facet normal -0 0 1
    outer loop
      vertex 3 46.25 5
      vertex 6 -0.00999451 5
      vertex 3 49.75 5
    endloop
  endfacet
  facet normal -0 0 1
    outer loop
      vertex 3 37.75 5
      vertex 6 -0.00999451 5
      vertex 3 46.25 5
    endloop
  endfacet
  facet normal -0 0 1
    outer loop
      vertex 3 34.25 5
      vertex 6 -0.00999451 5
      vertex 3 37.75 5
    endloop
  endfacet
  facet normal -0 0 1
    outer loop
      vertex 3 25.75 5
      vertex 6 -0.00999451 5
      vertex 3 34.25 5
    endloop
  endfacet
  facet normal -0 0 1
    outer loop
      vertex 3 22.25 5
      vertex 6 -0.00999451 5
      vertex 3 25.75 5
    endloop
  endfacet
  facet normal -0 0 1
    outer loop
      vertex 3 13.75 5
      vertex 6 -0.00999451 5
      vertex 3 22.25 5
    endloop
  endfacet
  facet normal -0 0 1
    outer loop
      vertex 3 10.25 5
      vertex 6 -0.00999451 5
      vertex 3 13.75 5
    endloop
  endfacet
  facet normal -0 0 1
    outer loop
      vertex 3 1.75 5
      vertex 6 -0.00999451 5
      vertex 3 10.25 5
    endloop
  endfacet
  facet normal 0 0 1
    outer loop
      vertex 6 -0.00999451 5
      vertex 3 1.75 5
      vertex 3 -0.00999451 5
    endloop
  endfacet
  facet normal 1 0 0
    outer loop
      vertex 3 120.01 7
      vertex 3 118.25 6
      vertex 3 120.01 5
    endloop
  endfacet
  facet normal 1 0 0
    outer loop
      vertex 3 120.01 7
      vertex 3 109.75 6
      vertex 3 118.25 6
    endloop
  endfacet
  facet normal 1 0 0
    outer loop
      vertex 3 109.75 6
      vertex 3 106.25 6
      vertex 3 109.75 5
    endloop
  endfacet
  facet normal 1 0 0
    outer loop
      vertex 3 120.01 7
      vertex 3 106.25 6
      vertex 3 109.75 6
    endloop
  endfacet
  facet normal 1 0 0
    outer loop
      vertex 3 120.01 7
      vertex 3 97.75 6
      vertex 3 106.25 6
    endloop
  endfacet
  facet normal 1 0 0
    outer loop
      vertex 3 97.75 6
      vertex 3 94.25 6
      vertex 3 97.75 5
    endloop
  endfacet
  facet normal 1 0 0
    outer loop
      vertex 3 120.01 7
      vertex 3 94.25 6
      vertex 3 97.75 6
    endloop
  endfacet
  facet normal 1 0 0
    outer loop
      vertex 3 120.01 7
      vertex 3 85.75 6
      vertex 3 94.25 6
    endloop
  endfacet
  facet normal 1 0 0
    outer loop
      vertex 3 85.75 6
      vertex 3 82.25 6
      vertex 3 85.75 5
    endloop
  endfacet
  facet normal 1 0 0
    outer loop
      vertex 3 120.01 7
      vertex 3 82.25 6
      vertex 3 85.75 6
    endloop
  endfacet
  facet normal 1 0 0
    outer loop
      vertex 3 120.01 7
      vertex 3 73.75 6
      vertex 3 82.25 6
    endloop
  endfacet
  facet normal 1 0 0
    outer loop
      vertex 3 73.75 6
      vertex 3 70.25 6
      vertex 3 73.75 5
    endloop
  endfacet
  facet normal 1 0 0
    outer loop
      vertex 3 120.01 7
      vertex 3 70.25 6
      vertex 3 73.75 6
    endloop
  endfacet
  facet normal 1 0 0
    outer loop
      vertex 3 120.01 7
      vertex 3 61.75 6
      vertex 3 70.25 6
    endloop
  endfacet
  facet normal 1 0 0
    outer loop
      vertex 3 61.75 6
      vertex 3 58.25 6
      vertex 3 61.75 5
    endloop
  endfacet
  facet normal 1 0 0
    outer loop
      vertex 3 120.01 7
      vertex 3 58.25 6
      vertex 3 61.75 6
    endloop
  endfacet
  facet normal 1 0 0
    outer loop
      vertex 3 120.01 7
      vertex 3 49.75 6
      vertex 3 58.25 6
    endloop
  endfacet
  facet normal 1 0 0
    outer loop
      vertex 3 49.75 6
      vertex 3 46.25 6
      vertex 3 49.75 5
    endloop
  endfacet
  facet normal 1 0 0
    outer loop
      vertex 3 120.01 7
      vertex 3 46.25 6
      vertex 3 49.75 6
    endloop
  endfacet
  facet normal 1 -0 0
    outer loop
      vertex 3 -0.00999451 7
      vertex 3 46.25 6
      vertex 3 120.01 7
    endloop
  endfacet
  facet normal 1 0 0
    outer loop
      vertex 3 37.75 6
      vertex 3 34.25 6
      vertex 3 37.75 5
    endloop
  endfacet
  facet normal 1 0 0
    outer loop
      vertex 3 46.25 6
      vertex 3 -0.00999451 7
      vertex 3 37.75 6
    endloop
  endfacet
  facet normal 1 0 0
    outer loop
      vertex 3 37.75 6
      vertex 3 -0.00999451 7
      vertex 3 34.25 6
    endloop
  endfacet
  facet normal 1 0 0
    outer loop
      vertex 3 25.75 6
      vertex 3 22.25 6
      vertex 3 25.75 5
    endloop
  endfacet
  facet normal 1 0 0
    outer loop
      vertex 3 34.25 6
      vertex 3 -0.00999451 7
      vertex 3 25.75 6
    endloop
  endfacet
  facet normal 1 0 0
    outer loop
      vertex 3 25.75 6
      vertex 3 -0.00999451 7
      vertex 3 22.25 6
    endloop
  endfacet
  facet normal 1 0 0
    outer loop
      vertex 3 13.75 6
      vertex 3 10.25 6
      vertex 3 13.75 5
    endloop
  endfacet
  facet normal 1 0 0
    outer loop
      vertex 3 22.25 6
      vertex 3 -0.00999451 7
      vertex 3 13.75 6
    endloop
  endfacet
  facet normal 1 0 0
    outer loop
      vertex 3 13.75 6
      vertex 3 -0.00999451 7
      vertex 3 10.25 6
    endloop
  endfacet
  facet normal 1 0 0
    outer loop
      vertex 3 10.25 6
      vertex 3 -0.00999451 7
      vertex 3 1.75 6
    endloop
  endfacet
  facet normal 1 0 0
    outer loop
      vertex 3 -0.00999451 5
      vertex 3 1.75 6
      vertex 3 -0.00999451 7
    endloop
  endfacet
  facet normal 1 0 0
    outer loop
      vertex 3 1.75 6
      vertex 3 -0.00999451 5
      vertex 3 1.75 5
    endloop
  endfacet
  facet normal 1 0 0
    outer loop
      vertex 3 120.01 5
      vertex 3 118.25 6
      vertex 3 118.25 5
    endloop
  endfacet
  facet normal 1 0 0
    outer loop
      vertex 3 109.75 5
      vertex 3 106.25 6
      vertex 3 106.25 5
    endloop
  endfacet
  facet normal 1 0 0
    outer loop
      vertex 3 97.75 5
      vertex 3 94.25 6
      vertex 3 94.25 5
    endloop
  endfacet
  facet normal 1 0 0
    outer loop
      vertex 3 85.75 5
      vertex 3 82.25 6
      vertex 3 82.25 5
    endloop
  endfacet
  facet normal 1 0 0
    outer loop
      vertex 3 73.75 5
      vertex 3 70.25 6
      vertex 3 70.25 5
    endloop
  endfacet
  facet normal 1 0 0
    outer loop
      vertex 3 61.75 5
      vertex 3 58.25 6
      vertex 3 58.25 5
    endloop
  endfacet
  facet normal 1 0 0
    outer loop
      vertex 3 49.75 5
      vertex 3 46.25 6
      vertex 3 46.25 5
    endloop
  endfacet
  facet normal 1 0 0
    outer loop
      vertex 3 37.75 5
      vertex 3 34.25 6
      vertex 3 34.25 5
    endloop
  endfacet
  facet normal 1 0 0
    outer loop
      vertex 3 25.75 5
      vertex 3 22.25 6
      vertex 3 22.25 5
    endloop
  endfacet
  facet normal 1 0 0
    outer loop
      vertex 3 13.75 5
      vertex 3 10.25 6
      vertex 3 10.25 5
    endloop
  endfacet
  facet normal 0 0 -1
    outer loop
      vertex 0 1.75 6
      vertex 3 10.25 6
      vertex 3 1.75 6
    endloop
  endfacet
  facet normal -0 0 -1
    outer loop
      vertex 3 10.25 6
      vertex 0 1.75 6
      vertex 0 10.25 6
    endloop
  endfacet
  facet normal 0 1 -0
    outer loop
      vertex 3 1.75 5
      vertex 0 1.75 6
      vertex 3 1.75 6
    endloop
  endfacet
  facet normal 0 1 0
    outer loop
      vertex 0 1.75 6
      vertex 3 1.75 5
      vertex 0 1.75 5
    endloop
  endfacet
  facet normal 0 -1 0
    outer loop
      vertex 0 10.25 5
      vertex 3 10.25 6
      vertex 0 10.25 6
    endloop
  endfacet
  facet normal 0 -1 -0
    outer loop
      vertex 3 10.25 6
      vertex 0 10.25 5
      vertex 3 10.25 5
    endloop
  endfacet
  facet normal -0 0 1
    outer loop
      vertex 0 120.01 7
      vertex 3 -0.00999451 7
      vertex 3 120.01 7
    endloop
  endfacet
  facet normal 0 0 1
    outer loop
      vertex 3 -0.00999451 7
      vertex 0 120.01 7
      vertex 0 -0.00999451 7
    endloop
  endfacet
  facet normal -1 0 0
    outer loop
      vertex 26 118.25 4
      vertex 26 120.01 5
      vertex 26 120.01 4
    endloop
  endfacet
  facet normal -1 0 0
    outer loop
      vertex 26 109.75 4
      vertex 26 120.01 5
      vertex 26 118.25 4
    endloop
  endfacet
  facet normal -1 0 0
    outer loop
      vertex 26 106.25 4
      vertex 26 120.01 5
      vertex 26 109.75 4
    endloop
  endfacet
  facet normal -1 0 0
    outer loop
      vertex 26 97.75 4
      vertex 26 120.01 5
      vertex 26 106.25 4
    endloop
  endfacet
  facet normal -1 0 0
    outer loop
      vertex 26 94.25 4
      vertex 26 120.01 5
      vertex 26 97.75 4
    endloop
  endfacet
  facet normal -1 0 0
    outer loop
      vertex 26 85.75 4
      vertex 26 120.01 5
      vertex 26 94.25 4
    endloop
  endfacet
  facet normal -1 0 0
    outer loop
      vertex 26 82.25 4
      vertex 26 120.01 5
      vertex 26 85.75 4
    endloop
  endfacet
  facet normal -1 0 0
    outer loop
      vertex 26 73.75 4
      vertex 26 120.01 5
      vertex 26 82.25 4
    endloop
  endfacet
  facet normal -1 0 0
    outer loop
      vertex 26 70.25 4
      vertex 26 120.01 5
      vertex 26 73.75 4
    endloop
  endfacet
  facet normal -1 0 0
    outer loop
      vertex 26 61.75 4
      vertex 26 120.01 5
      vertex 26 70.25 4
    endloop
  endfacet
  facet normal -1 0 0
    outer loop
      vertex 26 58.25 4
      vertex 26 120.01 5
      vertex 26 61.75 4
    endloop
  endfacet
  facet normal -1 0 0
    outer loop
      vertex 26 49.75 4
      vertex 26 120.01 5
      vertex 26 58.25 4
    endloop
  endfacet
  facet normal -1 0 0
    outer loop
      vertex 26 46.25 4
      vertex 26 120.01 5
      vertex 26 49.75 4
    endloop
  endfacet
  facet normal -1 0 0
    outer loop
      vertex 26 -0.00999451 5
      vertex 26 46.25 4
      vertex 26 37.75 4
    endloop
  endfacet
  facet normal -1 0 0
    outer loop
      vertex 26 -0.00999451 5
      vertex 26 37.75 4
      vertex 26 34.25 4
    endloop
  endfacet
  facet normal -1 0 0
    outer loop
      vertex 26 -0.00999451 5
      vertex 26 34.25 4
      vertex 26 25.75 4
    endloop
  endfacet
  facet normal -1 0 0
    outer loop
      vertex 26 -0.00999451 5
      vertex 26 25.75 4
      vertex 26 22.25 4
    endloop
  endfacet
  facet normal -1 0 0
    outer loop
      vertex 26 -0.00999451 5
      vertex 26 22.25 4
      vertex 26 13.75 4
    endloop
  endfacet
  facet normal -1 0 0
    outer loop
      vertex 26 -0.00999451 5
      vertex 26 13.75 4
      vertex 26 10.25 4
    endloop
  endfacet
  facet normal -1 0 0
    outer loop
      vertex 26 -0.00999451 5
      vertex 26 10.25 4
      vertex 26 1.75 4
    endloop
  endfacet
  facet normal -1 0 0
    outer loop
      vertex 26 -0.00999451 5
      vertex 26 1.75 4
      vertex 26 -0.00999451 4
    endloop
  endfacet
  facet normal -1 0 0
    outer loop
      vertex 26 46.25 4
      vertex 26 -0.00999451 5
      vertex 26 120.01 5
    endloop
  endfacet
  facet normal -0 0 1
    outer loop
      vertex 26 120.01 5
      vertex 29 -0.00999451 5
      vertex 29 120.01 5
    endloop
  endfacet
  facet normal 0 0 1
    outer loop
      vertex 29 -0.00999451 5
      vertex 26 120.01 5
      vertex 26 -0.00999451 5
    endloop
  endfacet
  facet normal 0 0 -1
    outer loop
      vertex 0 13.75 4
      vertex 6 22.25 4
      vertex 6 13.75 4
    endloop
  endfacet
  facet normal -0 0 -1
    outer loop
      vertex 6 22.25 4
      vertex 0 13.75 4
      vertex 0 22.25 4
    endloop
  endfacet
  facet normal 0 0 -1
    outer loop
      vertex 26 13.75 4
      vertex 29 22.25 4
      vertex 29 13.75 4
    endloop
  endfacet
  facet normal -0 0 -1
    outer loop
      vertex 29 22.25 4
      vertex 26 13.75 4
      vertex 26 22.25 4
    endloop
  endfacet
  facet normal -0 0 1
    outer loop
      vertex 6 25.75 4
      vertex 26 22.25 4
      vertex 26 25.75 4
    endloop
  endfacet
  facet normal 0 0 1
    outer loop
      vertex 26 22.25 4
      vertex 6 25.75 4
      vertex 6 22.25 4
    endloop
  endfacet
  facet normal 0 -1 0
    outer loop
      vertex 0 22.25 3
      vertex 6 22.25 4
      vertex 0 22.25 4
    endloop
  endfacet
  facet normal 0 -1 0
    outer loop
      vertex 29 22.25 3
      vertex 6 22.25 4
      vertex 0 22.25 3
    endloop
  endfacet
  facet normal 0 -1 0
    outer loop
      vertex 6 22.25 4
      vertex 29 22.25 3
      vertex 26 22.25 4
    endloop
  endfacet
  facet normal 0 -1 0
    outer loop
      vertex 26 22.25 4
      vertex 29 22.25 3
      vertex 29 22.25 4
    endloop
  endfacet
  facet normal -0 0 1
    outer loop
      vertex 0 22.25 3
      vertex 29 19.25 3
      vertex 29 22.25 3
    endloop
  endfacet
  facet normal 0 0 1
    outer loop
      vertex 29 19.25 3
      vertex 0 22.25 3
      vertex 0 19.25 3
    endloop
  endfacet
  facet normal 0 -1 0
    outer loop
      vertex 0 19.25 1
      vertex 29 19.25 3
      vertex 0 19.25 3
    endloop
  endfacet
  facet normal 0 -1 -0
    outer loop
      vertex 29 19.25 3
      vertex 0 19.25 1
      vertex 29 19.25 1
    endloop
  endfacet
  facet normal -0 0 1
    outer loop
      vertex 0 19.25 1
      vertex 29 14.75 1
      vertex 29 19.25 1
    endloop
  endfacet
  facet normal 0 0 1
    outer loop
      vertex 29 14.75 1
      vertex 0 19.25 1
      vertex 0 14.75 1
    endloop
  endfacet
  facet normal 3.28853e-08 1 -0
    outer loop
      vertex 29 14.75 1
      vertex 0 14.75 3
      vertex 29 14.75 3
    endloop
  endfacet
  facet normal 3.28853e-08 1 0
    outer loop
      vertex 0 14.75 3
      vertex 29 14.75 1
      vertex 0 14.75 1
    endloop
  endfacet
  facet normal 0 0 1
    outer loop
      vertex 0 14.75 3
      vertex 29 13.75 3
      vertex 29 14.75 3
    endloop
  endfacet
  facet normal 0 0 1
    outer loop
      vertex 29 13.75 3
      vertex 0 14.75 3
      vertex 0 13.75 3
    endloop
  endfacet
  facet normal 0 1 -0
    outer loop
      vertex 29 13.75 3
      vertex 26 13.75 4
      vertex 29 13.75 4
    endloop
  endfacet
  facet normal 4.76837e-08 1 1.43051e-07
    outer loop
      vertex 26 13.75 4
      vertex 29 13.75 3
      vertex 6 13.75 4
    endloop
  endfacet
  facet normal 3.28853e-08 1 -1.97312e-07
    outer loop
      vertex 0 13.75 3
      vertex 6 13.75 4
      vertex 29 13.75 3
    endloop
  endfacet
  facet normal 0 1 0
    outer loop
      vertex 6 13.75 4
      vertex 0 13.75 3
      vertex 0 13.75 4
    endloop
  endfacet
  facet normal 0 1 -0
    outer loop
      vertex 3 13.75 5
      vertex 0 13.75 6
      vertex 3 13.75 6
    endloop
  endfacet
  facet normal 0 1 0
    outer loop
      vertex 0 13.75 6
      vertex 3 13.75 5
      vertex 0 13.75 5
    endloop
  endfacet
  facet normal 0 0 -1
    outer loop
      vertex 0 13.75 6
      vertex 3 22.25 6
      vertex 3 13.75 6
    endloop
  endfacet
  facet normal -0 0 -1
    outer loop
      vertex 3 22.25 6
      vertex 0 13.75 6
      vertex 0 22.25 6
    endloop
  endfacet
  facet normal 0 -1 0
    outer loop
      vertex 0 22.25 5
      vertex 3 22.25 6
      vertex 0 22.25 6
    endloop
  endfacet
  facet normal 0 -1 -0
    outer loop
      vertex 3 22.25 6
      vertex 0 22.25 5
      vertex 3 22.25 5
    endloop
  endfacet
  facet normal 0 0 -1
    outer loop
      vertex 0 25.75 4
      vertex 6 34.25 4
      vertex 6 25.75 4
    endloop
  endfacet
  facet normal -0 0 -1
    outer loop
      vertex 6 34.25 4
      vertex 0 25.75 4
      vertex 0 34.25 4
    endloop
  endfacet
  facet normal 0 0 -1
    outer loop
      vertex 26 25.75 4
      vertex 29 34.25 4
      vertex 29 25.75 4
    endloop
  endfacet
  facet normal -0 0 -1
    outer loop
      vertex 29 34.25 4
      vertex 26 25.75 4
      vertex 26 34.25 4
    endloop
  endfacet
  facet normal -0 0 1
    outer loop
      vertex 6 37.75 4
      vertex 26 34.25 4
      vertex 26 37.75 4
    endloop
  endfacet
  facet normal 0 0 1
    outer loop
      vertex 26 34.25 4
      vertex 6 37.75 4
      vertex 6 34.25 4
    endloop
  endfacet
  facet normal 0 -1 0
    outer loop
      vertex 0 34.25 3
      vertex 6 34.25 4
      vertex 0 34.25 4
    endloop
  endfacet
  facet normal 0 -1 0
    outer loop
      vertex 29 34.25 3
      vertex 6 34.25 4
      vertex 0 34.25 3
    endloop
  endfacet
  facet normal 0 -1 0
    outer loop
      vertex 6 34.25 4
      vertex 29 34.25 3
      vertex 26 34.25 4
    endloop
  endfacet
  facet normal 0 -1 0
    outer loop
      vertex 26 34.25 4
      vertex 29 34.25 3
      vertex 29 34.25 4
    endloop
  endfacet
  facet normal -0 0 1
    outer loop
      vertex 0 34.25 3
      vertex 29 31.25 3
      vertex 29 34.25 3
    endloop
  endfacet
  facet normal 0 0 1
    outer loop
      vertex 29 31.25 3
      vertex 0 34.25 3
      vertex 0 31.25 3
    endloop
  endfacet
  facet normal 0 -1 0
    outer loop
      vertex 0 31.25 1
      vertex 29 31.25 3
      vertex 0 31.25 3
    endloop
  endfacet
  facet normal 0 -1 -0
    outer loop
      vertex 29 31.25 3
      vertex 0 31.25 1
      vertex 29 31.25 1
    endloop
  endfacet
  facet normal -0 0 1
    outer loop
      vertex 0 31.25 1
      vertex 29 26.75 1
      vertex 29 31.25 1
    endloop
  endfacet
  facet normal 0 0 1
    outer loop
      vertex 29 26.75 1
      vertex 0 31.25 1
      vertex 0 26.75 1
    endloop
  endfacet
  facet normal 0 1 -0
    outer loop
      vertex 29 26.75 1
      vertex 0 26.75 3
      vertex 29 26.75 3
    endloop
  endfacet
  facet normal 0 1 0
    outer loop
      vertex 0 26.75 3
      vertex 29 26.75 1
      vertex 0 26.75 1
    endloop
  endfacet
  facet normal -0 0 1
    outer loop
      vertex 0 26.75 3
      vertex 29 25.75 3
      vertex 29 26.75 3
    endloop
  endfacet
  facet normal 0 0 1
    outer loop
      vertex 29 25.75 3
      vertex 0 26.75 3
      vertex 0 25.75 3
    endloop
  endfacet
  facet normal 0 1 -0
    outer loop
      vertex 29 25.75 3
      vertex 26 25.75 4
      vertex 29 25.75 4
    endloop
  endfacet
  facet normal 0 1 0
    outer loop
      vertex 26 25.75 4
      vertex 29 25.75 3
      vertex 6 25.75 4
    endloop
  endfacet
  facet normal 0 1 0
    outer loop
      vertex 0 25.75 3
      vertex 6 25.75 4
      vertex 29 25.75 3
    endloop
  endfacet
  facet normal 0 1 0
    outer loop
      vertex 6 25.75 4
      vertex 0 25.75 3
      vertex 0 25.75 4
    endloop
  endfacet
  facet normal 0 0 -1
    outer loop
      vertex 0 25.75 6
      vertex 3 34.25 6
      vertex 3 25.75 6
    endloop
  endfacet
  facet normal -0 0 -1
    outer loop
      vertex 3 34.25 6
      vertex 0 25.75 6
      vertex 0 34.25 6
    endloop
  endfacet
  facet normal 0 1 -0
    outer loop
      vertex 3 25.75 5
      vertex 0 25.75 6
      vertex 3 25.75 6
    endloop
  endfacet
  facet normal 0 1 0
    outer loop
      vertex 0 25.75 6
      vertex 3 25.75 5
      vertex 0 25.75 5
    endloop
  endfacet
  facet normal 0 -1 0
    outer loop
      vertex 0 34.25 5
      vertex 3 34.25 6
      vertex 0 34.25 6
    endloop
  endfacet
  facet normal 0 -1 -0
    outer loop
      vertex 3 34.25 6
      vertex 0 34.25 5
      vertex 3 34.25 5
    endloop
  endfacet
  facet normal 0 0 -1
    outer loop
      vertex 0 37.75 4
      vertex 6 46.25 4
      vertex 6 37.75 4
    endloop
  endfacet
  facet normal -0 0 -1
    outer loop
      vertex 6 46.25 4
      vertex 0 37.75 4
      vertex 0 46.25 4
    endloop
  endfacet
  facet normal 0 0 -1
    outer loop
      vertex 26 37.75 4
      vertex 29 46.25 4
      vertex 29 37.75 4
    endloop
  endfacet
  facet normal -0 0 -1
    outer loop
      vertex 29 46.25 4
      vertex 26 37.75 4
      vertex 26 46.25 4
    endloop
  endfacet
  facet normal -0 0 1
    outer loop
      vertex 6 49.75 4
      vertex 26 46.25 4
      vertex 26 49.75 4
    endloop
  endfacet
  facet normal 0 0 1
    outer loop
      vertex 26 46.25 4
      vertex 6 49.75 4
      vertex 6 46.25 4
    endloop
  endfacet
  facet normal 0 -1 0
    outer loop
      vertex 0 46.25 3
      vertex 6 46.25 4
      vertex 0 46.25 4
    endloop
  endfacet
  facet normal 0 -1 0
    outer loop
      vertex 29 46.25 3
      vertex 6 46.25 4
      vertex 0 46.25 3
    endloop
  endfacet
  facet normal 0 -1 0
    outer loop
      vertex 6 46.25 4
      vertex 29 46.25 3
      vertex 26 46.25 4
    endloop
  endfacet
  facet normal 0 -1 0
    outer loop
      vertex 26 46.25 4
      vertex 29 46.25 3
      vertex 29 46.25 4
    endloop
  endfacet
  facet normal -0 0 1
    outer loop
      vertex 0 46.25 3
      vertex 29 43.25 3
      vertex 29 46.25 3
    endloop
  endfacet
  facet normal 0 0 1
    outer loop
      vertex 29 43.25 3
      vertex 0 46.25 3
      vertex 0 43.25 3
    endloop
  endfacet
  facet normal 0 -1 0
    outer loop
      vertex 0 43.25 1
      vertex 29 43.25 3
      vertex 0 43.25 3
    endloop
  endfacet
  facet normal 0 -1 -0
    outer loop
      vertex 29 43.25 3
      vertex 0 43.25 1
      vertex 29 43.25 1
    endloop
  endfacet
  facet normal -0 0 1
    outer loop
      vertex 0 43.25 1
      vertex 29 38.75 1
      vertex 29 43.25 1
    endloop
  endfacet
  facet normal 0 0 1
    outer loop
      vertex 29 38.75 1
      vertex 0 43.25 1
      vertex 0 38.75 1
    endloop
  endfacet
  facet normal 0 1 -0
    outer loop
      vertex 29 38.75 1
      vertex 0 38.75 3
      vertex 29 38.75 3
    endloop
  endfacet
  facet normal 0 1 0
    outer loop
      vertex 0 38.75 3
      vertex 29 38.75 1
      vertex 0 38.75 1
    endloop
  endfacet
  facet normal -0 0 1
    outer loop
      vertex 0 38.75 3
      vertex 29 37.75 3
      vertex 29 38.75 3
    endloop
  endfacet
  facet normal 0 0 1
    outer loop
      vertex 29 37.75 3
      vertex 0 38.75 3
      vertex 0 37.75 3
    endloop
  endfacet
  facet normal 0 1 -0
    outer loop
      vertex 29 37.75 3
      vertex 26 37.75 4
      vertex 29 37.75 4
    endloop
  endfacet
  facet normal 0 1 0
    outer loop
      vertex 26 37.75 4
      vertex 29 37.75 3
      vertex 6 37.75 4
    endloop
  endfacet
  facet normal 0 1 0
    outer loop
      vertex 0 37.75 3
      vertex 6 37.75 4
      vertex 29 37.75 3
    endloop
  endfacet
  facet normal 0 1 0
    outer loop
      vertex 6 37.75 4
      vertex 0 37.75 3
      vertex 0 37.75 4
    endloop
  endfacet
  facet normal 0 0 -1
    outer loop
      vertex 0 37.75 6
      vertex 3 46.25 6
      vertex 3 37.75 6
    endloop
  endfacet
  facet normal -0 0 -1
    outer loop
      vertex 3 46.25 6
      vertex 0 37.75 6
      vertex 0 46.25 6
    endloop
  endfacet
  facet normal 0 1 -0
    outer loop
      vertex 3 37.75 5
      vertex 0 37.75 6
      vertex 3 37.75 6
    endloop
  endfacet
  facet normal 0 1 0
    outer loop
      vertex 0 37.75 6
      vertex 3 37.75 5
      vertex 0 37.75 5
    endloop
  endfacet
  facet normal 0 -1 0
    outer loop
      vertex 0 46.25 5
      vertex 3 46.25 6
      vertex 0 46.25 6
    endloop
  endfacet
  facet normal 0 -1 -0
    outer loop
      vertex 3 46.25 6
      vertex 0 46.25 5
      vertex 3 46.25 5
    endloop
  endfacet
  facet normal 0 0 -1
    outer loop
      vertex 0 49.75 4
      vertex 6 58.25 4
      vertex 6 49.75 4
    endloop
  endfacet
  facet normal -0 0 -1
    outer loop
      vertex 6 58.25 4
      vertex 0 49.75 4
      vertex 0 58.25 4
    endloop
  endfacet
  facet normal 0 0 -1
    outer loop
      vertex 26 49.75 4
      vertex 29 58.25 4
      vertex 29 49.75 4
    endloop
  endfacet
  facet normal -0 0 -1
    outer loop
      vertex 29 58.25 4
      vertex 26 49.75 4
      vertex 26 58.25 4
    endloop
  endfacet
  facet normal -0 0 1
    outer loop
      vertex 6 61.75 4
      vertex 26 58.25 4
      vertex 26 61.75 4
    endloop
  endfacet
  facet normal 0 0 1
    outer loop
      vertex 26 58.25 4
      vertex 6 61.75 4
      vertex 6 58.25 4
    endloop
  endfacet
  facet normal 0 -1 0
    outer loop
      vertex 0 58.25 3
      vertex 6 58.25 4
      vertex 0 58.25 4
    endloop
  endfacet
  facet normal 0 -1 0
    outer loop
      vertex 29 58.25 3
      vertex 6 58.25 4
      vertex 0 58.25 3
    endloop
  endfacet
  facet normal 0 -1 0
    outer loop
      vertex 6 58.25 4
      vertex 29 58.25 3
      vertex 26 58.25 4
    endloop
  endfacet
  facet normal 0 -1 0
    outer loop
      vertex 26 58.25 4
      vertex 29 58.25 3
      vertex 29 58.25 4
    endloop
  endfacet
  facet normal -0 0 1
    outer loop
      vertex 0 58.25 3
      vertex 29 55.25 3
      vertex 29 58.25 3
    endloop
  endfacet
  facet normal 0 0 1
    outer loop
      vertex 29 55.25 3
      vertex 0 58.25 3
      vertex 0 55.25 3
    endloop
  endfacet
  facet normal 0 -1 0
    outer loop
      vertex 0 55.25 1
      vertex 29 55.25 3
      vertex 0 55.25 3
    endloop
  endfacet
  facet normal 0 -1 -0
    outer loop
      vertex 29 55.25 3
      vertex 0 55.25 1
      vertex 29 55.25 1
    endloop
  endfacet
  facet normal -0 0 1
    outer loop
      vertex 0 55.25 1
      vertex 29 50.75 1
      vertex 29 55.25 1
    endloop
  endfacet
  facet normal 0 0 1
    outer loop
      vertex 29 50.75 1
      vertex 0 55.25 1
      vertex 0 50.75 1
    endloop
  endfacet
  facet normal 0 1 -0
    outer loop
      vertex 29 50.75 1
      vertex 0 50.75 3
      vertex 29 50.75 3
    endloop
  endfacet
  facet normal 0 1 0
    outer loop
      vertex 0 50.75 3
      vertex 29 50.75 1
      vertex 0 50.75 1
    endloop
  endfacet
  facet normal -0 0 1
    outer loop
      vertex 0 50.75 3
      vertex 29 49.75 3
      vertex 29 50.75 3
    endloop
  endfacet
  facet normal 0 0 1
    outer loop
      vertex 29 49.75 3
      vertex 0 50.75 3
      vertex 0 49.75 3
    endloop
  endfacet
  facet normal 0 1 -0
    outer loop
      vertex 29 49.75 3
      vertex 26 49.75 4
      vertex 29 49.75 4
    endloop
  endfacet
  facet normal 0 1 0
    outer loop
      vertex 26 49.75 4
      vertex 29 49.75 3
      vertex 6 49.75 4
    endloop
  endfacet
  facet normal 0 1 0
    outer loop
      vertex 0 49.75 3
      vertex 6 49.75 4
      vertex 29 49.75 3
    endloop
  endfacet
  facet normal 0 1 0
    outer loop
      vertex 6 49.75 4
      vertex 0 49.75 3
      vertex 0 49.75 4
    endloop
  endfacet
  facet normal 0 0 -1
    outer loop
      vertex 0 49.75 6
      vertex 3 58.25 6
      vertex 3 49.75 6
    endloop
  endfacet
  facet normal -0 0 -1
    outer loop
      vertex 3 58.25 6
      vertex 0 49.75 6
      vertex 0 58.25 6
    endloop
  endfacet
  facet normal 0 1 -0
    outer loop
      vertex 3 49.75 5
      vertex 0 49.75 6
      vertex 3 49.75 6
    endloop
  endfacet
  facet normal 0 1 0
    outer loop
      vertex 0 49.75 6
      vertex 3 49.75 5
      vertex 0 49.75 5
    endloop
  endfacet
  facet normal 0 -1 0
    outer loop
      vertex 0 58.25 5
      vertex 3 58.25 6
      vertex 0 58.25 6
    endloop
  endfacet
  facet normal 0 -1 -0
    outer loop
      vertex 3 58.25 6
      vertex 0 58.25 5
      vertex 3 58.25 5
    endloop
  endfacet
  facet normal 0 0 -1
    outer loop
      vertex 0 61.75 4
      vertex 6 70.25 4
      vertex 6 61.75 4
    endloop
  endfacet
  facet normal -0 0 -1
    outer loop
      vertex 6 70.25 4
      vertex 0 61.75 4
      vertex 0 70.25 4
    endloop
  endfacet
  facet normal 0 0 -1
    outer loop
      vertex 26 61.75 4
      vertex 29 70.25 4
      vertex 29 61.75 4
    endloop
  endfacet
  facet normal -0 0 -1
    outer loop
      vertex 29 70.25 4
      vertex 26 61.75 4
      vertex 26 70.25 4
    endloop
  endfacet
  facet normal -0 0 1
    outer loop
      vertex 6 73.75 4
      vertex 26 70.25 4
      vertex 26 73.75 4
    endloop
  endfacet
  facet normal 0 0 1
    outer loop
      vertex 26 70.25 4
      vertex 6 73.75 4
      vertex 6 70.25 4
    endloop
  endfacet
  facet normal 0 -1 0
    outer loop
      vertex 0 70.25 3
      vertex 6 70.25 4
      vertex 0 70.25 4
    endloop
  endfacet
  facet normal 0 -1 0
    outer loop
      vertex 29 70.25 3
      vertex 6 70.25 4
      vertex 0 70.25 3
    endloop
  endfacet
  facet normal 0 -1 0
    outer loop
      vertex 6 70.25 4
      vertex 29 70.25 3
      vertex 26 70.25 4
    endloop
  endfacet
  facet normal 0 -1 0
    outer loop
      vertex 26 70.25 4
      vertex 29 70.25 3
      vertex 29 70.25 4
    endloop
  endfacet
  facet normal -0 0 1
    outer loop
      vertex 0 70.25 3
      vertex 29 67.25 3
      vertex 29 70.25 3
    endloop
  endfacet
  facet normal 0 0 1
    outer loop
      vertex 29 67.25 3
      vertex 0 70.25 3
      vertex 0 67.25 3
    endloop
  endfacet
  facet normal 0 -1 0
    outer loop
      vertex 0 67.25 1
      vertex 29 67.25 3
      vertex 0 67.25 3
    endloop
  endfacet
  facet normal 0 -1 -0
    outer loop
      vertex 29 67.25 3
      vertex 0 67.25 1
      vertex 29 67.25 1
    endloop
  endfacet
  facet normal -0 0 1
    outer loop
      vertex 0 67.25 1
      vertex 29 62.75 1
      vertex 29 67.25 1
    endloop
  endfacet
  facet normal 0 0 1
    outer loop
      vertex 29 62.75 1
      vertex 0 67.25 1
      vertex 0 62.75 1
    endloop
  endfacet
  facet normal 0 1 -0
    outer loop
      vertex 29 62.75 1
      vertex 0 62.75 3
      vertex 29 62.75 3
    endloop
  endfacet
  facet normal 0 1 0
    outer loop
      vertex 0 62.75 3
      vertex 29 62.75 1
      vertex 0 62.75 1
    endloop
  endfacet
  facet normal -0 0 1
    outer loop
      vertex 0 62.75 3
      vertex 29 61.75 3
      vertex 29 62.75 3
    endloop
  endfacet
  facet normal 0 0 1
    outer loop
      vertex 29 61.75 3
      vertex 0 62.75 3
      vertex 0 61.75 3
    endloop
  endfacet
  facet normal 0 1 -0
    outer loop
      vertex 29 61.75 3
      vertex 26 61.75 4
      vertex 29 61.75 4
    endloop
  endfacet
  facet normal 0 1 0
    outer loop
      vertex 26 61.75 4
      vertex 29 61.75 3
      vertex 6 61.75 4
    endloop
  endfacet
  facet normal 0 1 0
    outer loop
      vertex 0 61.75 3
      vertex 6 61.75 4
      vertex 29 61.75 3
    endloop
  endfacet
  facet normal 0 1 0
    outer loop
      vertex 6 61.75 4
      vertex 0 61.75 3
      vertex 0 61.75 4
    endloop
  endfacet
  facet normal 0 1 -0
    outer loop
      vertex 3 61.75 5
      vertex 0 61.75 6
      vertex 3 61.75 6
    endloop
  endfacet
  facet normal 0 1 0
    outer loop
      vertex 0 61.75 6
      vertex 3 61.75 5
      vertex 0 61.75 5
    endloop
  endfacet
  facet normal 0 0 -1
    outer loop
      vertex 0 61.75 6
      vertex 3 70.25 6
      vertex 3 61.75 6
    endloop
  endfacet
  facet normal -0 0 -1
    outer loop
      vertex 3 70.25 6
      vertex 0 61.75 6
      vertex 0 70.25 6
    endloop
  endfacet
  facet normal 0 -1 0
    outer loop
      vertex 0 70.25 5
      vertex 3 70.25 6
      vertex 0 70.25 6
    endloop
  endfacet
  facet normal 0 -1 -0
    outer loop
      vertex 3 70.25 6
      vertex 0 70.25 5
      vertex 3 70.25 5
    endloop
  endfacet
  facet normal 0 0 -1
    outer loop
      vertex 0 73.75 4
      vertex 6 82.25 4
      vertex 6 73.75 4
    endloop
  endfacet
  facet normal -0 0 -1
    outer loop
      vertex 6 82.25 4
      vertex 0 73.75 4
      vertex 0 82.25 4
    endloop
  endfacet
  facet normal 0 0 -1
    outer loop
      vertex 26 73.75 4
      vertex 29 82.25 4
      vertex 29 73.75 4
    endloop
  endfacet
  facet normal -0 0 -1
    outer loop
      vertex 29 82.25 4
      vertex 26 73.75 4
      vertex 26 82.25 4
    endloop
  endfacet
  facet normal -0 0 1
    outer loop
      vertex 6 85.75 4
      vertex 26 82.25 4
      vertex 26 85.75 4
    endloop
  endfacet
  facet normal 0 0 1
    outer loop
      vertex 26 82.25 4
      vertex 6 85.75 4
      vertex 6 82.25 4
    endloop
  endfacet
  facet normal 0 -1 0
    outer loop
      vertex 0 82.25 3
      vertex 6 82.25 4
      vertex 0 82.25 4
    endloop
  endfacet
  facet normal 0 -1 0
    outer loop
      vertex 29 82.25 3
      vertex 6 82.25 4
      vertex 0 82.25 3
    endloop
  endfacet
  facet normal 0 -1 0
    outer loop
      vertex 6 82.25 4
      vertex 29 82.25 3
      vertex 26 82.25 4
    endloop
  endfacet
  facet normal 0 -1 0
    outer loop
      vertex 26 82.25 4
      vertex 29 82.25 3
      vertex 29 82.25 4
    endloop
  endfacet
  facet normal -0 0 1
    outer loop
      vertex 0 82.25 3
      vertex 29 79.25 3
      vertex 29 82.25 3
    endloop
  endfacet
  facet normal 0 0 1
    outer loop
      vertex 29 79.25 3
      vertex 0 82.25 3
      vertex 0 79.25 3
    endloop
  endfacet
  facet normal 0 -1 0
    outer loop
      vertex 0 79.25 1
      vertex 29 79.25 3
      vertex 0 79.25 3
    endloop
  endfacet
  facet normal 0 -1 -0
    outer loop
      vertex 29 79.25 3
      vertex 0 79.25 1
      vertex 29 79.25 1
    endloop
  endfacet
  facet normal -0 0 1
    outer loop
      vertex 0 79.25 1
      vertex 29 74.75 1
      vertex 29 79.25 1
    endloop
  endfacet
  facet normal 0 0 1
    outer loop
      vertex 29 74.75 1
      vertex 0 79.25 1
      vertex 0 74.75 1
    endloop
  endfacet
  facet normal 0 1 -0
    outer loop
      vertex 29 74.75 1
      vertex 0 74.75 3
      vertex 29 74.75 3
    endloop
  endfacet
  facet normal 0 1 0
    outer loop
      vertex 0 74.75 3
      vertex 29 74.75 1
      vertex 0 74.75 1
    endloop
  endfacet
  facet normal -0 0 1
    outer loop
      vertex 0 74.75 3
      vertex 29 73.75 3
      vertex 29 74.75 3
    endloop
  endfacet
  facet normal 0 0 1
    outer loop
      vertex 29 73.75 3
      vertex 0 74.75 3
      vertex 0 73.75 3
    endloop
  endfacet
  facet normal 0 1 -0
    outer loop
      vertex 29 73.75 3
      vertex 26 73.75 4
      vertex 29 73.75 4
    endloop
  endfacet
  facet normal 0 1 0
    outer loop
      vertex 26 73.75 4
      vertex 29 73.75 3
      vertex 6 73.75 4
    endloop
  endfacet
  facet normal 0 1 0
    outer loop
      vertex 0 73.75 3
      vertex 6 73.75 4
      vertex 29 73.75 3
    endloop
  endfacet
  facet normal 0 1 0
    outer loop
      vertex 6 73.75 4
      vertex 0 73.75 3
      vertex 0 73.75 4
    endloop
  endfacet
  facet normal 0 0 -1
    outer loop
      vertex 0 73.75 6
      vertex 3 82.25 6
      vertex 3 73.75 6
    endloop
  endfacet
  facet normal -0 0 -1
    outer loop
      vertex 3 82.25 6
      vertex 0 73.75 6
      vertex 0 82.25 6
    endloop
  endfacet
  facet normal 0 1 -0
    outer loop
      vertex 3 73.75 5
      vertex 0 73.75 6
      vertex 3 73.75 6
    endloop
  endfacet
  facet normal 0 1 0
    outer loop
      vertex 0 73.75 6
      vertex 3 73.75 5
      vertex 0 73.75 5
    endloop
  endfacet
  facet normal 0 -1 0
    outer loop
      vertex 0 82.25 5
      vertex 3 82.25 6
      vertex 0 82.25 6
    endloop
  endfacet
  facet normal 0 -1 -0
    outer loop
      vertex 3 82.25 6
      vertex 0 82.25 5
      vertex 3 82.25 5
    endloop
  endfacet
  facet normal 0 0 -1
    outer loop
      vertex 0 85.75 4
      vertex 6 94.25 4
      vertex 6 85.75 4
    endloop
  endfacet
  facet normal -0 0 -1
    outer loop
      vertex 6 94.25 4
      vertex 0 85.75 4
      vertex 0 94.25 4
    endloop
  endfacet
  facet normal 0 0 -1
    outer loop
      vertex 26 85.75 4
      vertex 29 94.25 4
      vertex 29 85.75 4
    endloop
  endfacet
  facet normal -0 0 -1
    outer loop
      vertex 29 94.25 4
      vertex 26 85.75 4
      vertex 26 94.25 4
    endloop
  endfacet
  facet normal -0 0 1
    outer loop
      vertex 6 97.75 4
      vertex 26 94.25 4
      vertex 26 97.75 4
    endloop
  endfacet
  facet normal 0 0 1
    outer loop
      vertex 26 94.25 4
      vertex 6 97.75 4
      vertex 6 94.25 4
    endloop
  endfacet
  facet normal 0 -1 0
    outer loop
      vertex 0 94.25 3
      vertex 6 94.25 4
      vertex 0 94.25 4
    endloop
  endfacet
  facet normal 0 -1 0
    outer loop
      vertex 29 94.25 3
      vertex 6 94.25 4
      vertex 0 94.25 3
    endloop
  endfacet
  facet normal 0 -1 0
    outer loop
      vertex 6 94.25 4
      vertex 29 94.25 3
      vertex 26 94.25 4
    endloop
  endfacet
  facet normal 0 -1 0
    outer loop
      vertex 26 94.25 4
      vertex 29 94.25 3
      vertex 29 94.25 4
    endloop
  endfacet
  facet normal -0 0 1
    outer loop
      vertex 0 94.25 3
      vertex 29 91.25 3
      vertex 29 94.25 3
    endloop
  endfacet
  facet normal 0 0 1
    outer loop
      vertex 29 91.25 3
      vertex 0 94.25 3
      vertex 0 91.25 3
    endloop
  endfacet
  facet normal 0 -1 0
    outer loop
      vertex 0 91.25 1
      vertex 29 91.25 3
      vertex 0 91.25 3
    endloop
  endfacet
  facet normal 0 -1 -0
    outer loop
      vertex 29 91.25 3
      vertex 0 91.25 1
      vertex 29 91.25 1
    endloop
  endfacet
  facet normal -0 0 1
    outer loop
      vertex 0 91.25 1
      vertex 29 86.75 1
      vertex 29 91.25 1
    endloop
  endfacet
  facet normal 0 0 1
    outer loop
      vertex 29 86.75 1
      vertex 0 91.25 1
      vertex 0 86.75 1
    endloop
  endfacet
  facet normal 0 1 -0
    outer loop
      vertex 29 86.75 1
      vertex 0 86.75 3
      vertex 29 86.75 3
    endloop
  endfacet
  facet normal 0 1 0
    outer loop
      vertex 0 86.75 3
      vertex 29 86.75 1
      vertex 0 86.75 1
    endloop
  endfacet
  facet normal -0 0 1
    outer loop
      vertex 0 86.75 3
      vertex 29 85.75 3
      vertex 29 86.75 3
    endloop
  endfacet
  facet normal 0 0 1
    outer loop
      vertex 29 85.75 3
      vertex 0 86.75 3
      vertex 0 85.75 3
    endloop
  endfacet
  facet normal 0 1 -0
    outer loop
      vertex 29 85.75 3
      vertex 26 85.75 4
      vertex 29 85.75 4
    endloop
  endfacet
  facet normal 0 1 0
    outer loop
      vertex 26 85.75 4
      vertex 29 85.75 3
      vertex 6 85.75 4
    endloop
  endfacet
  facet normal 0 1 0
    outer loop
      vertex 0 85.75 3
      vertex 6 85.75 4
      vertex 29 85.75 3
    endloop
  endfacet
  facet normal 0 1 0
    outer loop
      vertex 6 85.75 4
      vertex 0 85.75 3
      vertex 0 85.75 4
    endloop
  endfacet
  facet normal 0 1 -0
    outer loop
      vertex 3 85.75 5
      vertex 0 85.75 6
      vertex 3 85.75 6
    endloop
  endfacet
  facet normal 0 1 0
    outer loop
      vertex 0 85.75 6
      vertex 3 85.75 5
      vertex 0 85.75 5
    endloop
  endfacet
  facet normal 0 0 -1
    outer loop
      vertex 0 85.75 6
      vertex 3 94.25 6
      vertex 3 85.75 6
    endloop
  endfacet
  facet normal -0 0 -1
    outer loop
      vertex 3 94.25 6
      vertex 0 85.75 6
      vertex 0 94.25 6
    endloop
  endfacet
  facet normal 0 -1 0
    outer loop
      vertex 0 94.25 5
      vertex 3 94.25 6
      vertex 0 94.25 6
    endloop
  endfacet
  facet normal 0 -1 -0
    outer loop
      vertex 3 94.25 6
      vertex 0 94.25 5
      vertex 3 94.25 5
    endloop
  endfacet
  facet normal 0 0 -1
    outer loop
      vertex 0 97.75 4
      vertex 6 106.25 4
      vertex 6 97.75 4
    endloop
  endfacet
  facet normal -0 0 -1
    outer loop
      vertex 6 106.25 4
      vertex 0 97.75 4
      vertex 0 106.25 4
    endloop
  endfacet
  facet normal 0 0 -1
    outer loop
      vertex 26 97.75 4
      vertex 29 106.25 4
      vertex 29 97.75 4
    endloop
  endfacet
  facet normal -0 0 -1
    outer loop
      vertex 29 106.25 4
      vertex 26 97.75 4
      vertex 26 106.25 4
    endloop
  endfacet
  facet normal -0 0 1
    outer loop
      vertex 6 109.75 4
      vertex 26 106.25 4
      vertex 26 109.75 4
    endloop
  endfacet
  facet normal 0 0 1
    outer loop
      vertex 26 106.25 4
      vertex 6 109.75 4
      vertex 6 106.25 4
    endloop
  endfacet
  facet normal 0 -1 0
    outer loop
      vertex 0 106.25 3
      vertex 6 106.25 4
      vertex 0 106.25 4
    endloop
  endfacet
  facet normal 0 -1 0
    outer loop
      vertex 29 106.25 3
      vertex 6 106.25 4
      vertex 0 106.25 3
    endloop
  endfacet
  facet normal 0 -1 0
    outer loop
      vertex 6 106.25 4
      vertex 29 106.25 3
      vertex 26 106.25 4
    endloop
  endfacet
  facet normal 0 -1 0
    outer loop
      vertex 26 106.25 4
      vertex 29 106.25 3
      vertex 29 106.25 4
    endloop
  endfacet
  facet normal -0 0 1
    outer loop
      vertex 0 106.25 3
      vertex 29 103.25 3
      vertex 29 106.25 3
    endloop
  endfacet
  facet normal 0 0 1
    outer loop
      vertex 29 103.25 3
      vertex 0 106.25 3
      vertex 0 103.25 3
    endloop
  endfacet
  facet normal 0 -1 0
    outer loop
      vertex 0 103.25 1
      vertex 29 103.25 3
      vertex 0 103.25 3
    endloop
  endfacet
  facet normal 0 -1 -0
    outer loop
      vertex 29 103.25 3
      vertex 0 103.25 1
      vertex 29 103.25 1
    endloop
  endfacet
  facet normal -0 0 1
    outer loop
      vertex 0 103.25 1
      vertex 29 98.75 1
      vertex 29 103.25 1
    endloop
  endfacet
  facet normal 0 0 1
    outer loop
      vertex 29 98.75 1
      vertex 0 103.25 1
      vertex 0 98.75 1
    endloop
  endfacet
  facet normal 0 1 -0
    outer loop
      vertex 29 98.75 1
      vertex 0 98.75 3
      vertex 29 98.75 3
    endloop
  endfacet
  facet normal 0 1 0
    outer loop
      vertex 0 98.75 3
      vertex 29 98.75 1
      vertex 0 98.75 1
    endloop
  endfacet
  facet normal -0 0 1
    outer loop
      vertex 0 98.75 3
      vertex 29 97.75 3
      vertex 29 98.75 3
    endloop
  endfacet
  facet normal 0 0 1
    outer loop
      vertex 29 97.75 3
      vertex 0 98.75 3
      vertex 0 97.75 3
    endloop
  endfacet
  facet normal 0 1 -0
    outer loop
      vertex 29 97.75 3
      vertex 26 97.75 4
      vertex 29 97.75 4
    endloop
  endfacet
  facet normal 0 1 0
    outer loop
      vertex 26 97.75 4
      vertex 29 97.75 3
      vertex 6 97.75 4
    endloop
  endfacet
  facet normal 0 1 0
    outer loop
      vertex 0 97.75 3
      vertex 6 97.75 4
      vertex 29 97.75 3
    endloop
  endfacet
  facet normal 0 1 0
    outer loop
      vertex 6 97.75 4
      vertex 0 97.75 3
      vertex 0 97.75 4
    endloop
  endfacet
  facet normal 0 1 -0
    outer loop
      vertex 3 97.75 5
      vertex 0 97.75 6
      vertex 3 97.75 6
    endloop
  endfacet
  facet normal 0 1 0
    outer loop
      vertex 0 97.75 6
      vertex 3 97.75 5
      vertex 0 97.75 5
    endloop
  endfacet
  facet normal 0 0 -1
    outer loop
      vertex 0 97.75 6
      vertex 3 106.25 6
      vertex 3 97.75 6
    endloop
  endfacet
  facet normal -0 0 -1
    outer loop
      vertex 3 106.25 6
      vertex 0 97.75 6
      vertex 0 106.25 6
    endloop
  endfacet
  facet normal 0 -1 0
    outer loop
      vertex 0 106.25 5
      vertex 3 106.25 6
      vertex 0 106.25 6
    endloop
  endfacet
  facet normal 0 -1 -0
    outer loop
      vertex 3 106.25 6
      vertex 0 106.25 5
      vertex 3 106.25 5
    endloop
  endfacet
  facet normal 0 0 -1
    outer loop
      vertex 0 109.75 4
      vertex 6 118.25 4
      vertex 6 109.75 4
    endloop
  endfacet
  facet normal -0 0 -1
    outer loop
      vertex 6 118.25 4
      vertex 0 109.75 4
      vertex 0 118.25 4
    endloop
  endfacet
  facet normal 0 0 -1
    outer loop
      vertex 26 109.75 4
      vertex 29 118.25 4
      vertex 29 109.75 4
    endloop
  endfacet
  facet normal -0 0 -1
    outer loop
      vertex 29 118.25 4
      vertex 26 109.75 4
      vertex 26 118.25 4
    endloop
  endfacet
  facet normal -0 0 1
    outer loop
      vertex 6 120.01 4
      vertex 26 118.25 4
      vertex 26 120.01 4
    endloop
  endfacet
  facet normal 0 0 1
    outer loop
      vertex 26 118.25 4
      vertex 6 120.01 4
      vertex 6 118.25 4
    endloop
  endfacet
  facet normal 0 -1 0
    outer loop
      vertex 0 118.25 3
      vertex 6 118.25 4
      vertex 0 118.25 4
    endloop
  endfacet
  facet normal 0 -1 0
    outer loop
      vertex 29 118.25 3
      vertex 6 118.25 4
      vertex 0 118.25 3
    endloop
  endfacet
  facet normal 0 -1 0
    outer loop
      vertex 6 118.25 4
      vertex 29 118.25 3
      vertex 26 118.25 4
    endloop
  endfacet
  facet normal 0 -1 0
    outer loop
      vertex 26 118.25 4
      vertex 29 118.25 3
      vertex 29 118.25 4
    endloop
  endfacet
  facet normal -0 0 1
    outer loop
      vertex 0 118.25 3
      vertex 29 115.25 3
      vertex 29 118.25 3
    endloop
  endfacet
  facet normal 0 0 1
    outer loop
      vertex 29 115.25 3
      vertex 0 118.25 3
      vertex 0 115.25 3
    endloop
  endfacet
  facet normal 0 -1 0
    outer loop
      vertex 0 115.25 1
      vertex 29 115.25 3
      vertex 0 115.25 3
    endloop
  endfacet
  facet normal 0 -1 -0
    outer loop
      vertex 29 115.25 3
      vertex 0 115.25 1
      vertex 29 115.25 1
    endloop
  endfacet
  facet normal -0 0 1
    outer loop
      vertex 0 115.25 1
      vertex 29 110.75 1
      vertex 29 115.25 1
    endloop
  endfacet
  facet normal 0 0 1
    outer loop
      vertex 29 110.75 1
      vertex 0 115.25 1
      vertex 0 110.75 1
    endloop
  endfacet
  facet normal 0 1 -0
    outer loop
      vertex 29 110.75 1
      vertex 0 110.75 3
      vertex 29 110.75 3
    endloop
  endfacet
  facet normal 0 1 0
    outer loop
      vertex 0 110.75 3
      vertex 29 110.75 1
      vertex 0 110.75 1
    endloop
  endfacet
  facet normal -0 0 1
    outer loop
      vertex 0 110.75 3
      vertex 29 109.75 3
      vertex 29 110.75 3
    endloop
  endfacet
  facet normal 0 0 1
    outer loop
      vertex 29 109.75 3
      vertex 0 110.75 3
      vertex 0 109.75 3
    endloop
  endfacet
  facet normal 0 1 -0
    outer loop
      vertex 29 109.75 3
      vertex 26 109.75 4
      vertex 29 109.75 4
    endloop
  endfacet
  facet normal 0 1 0
    outer loop
      vertex 26 109.75 4
      vertex 29 109.75 3
      vertex 6 109.75 4
    endloop
  endfacet
  facet normal 0 1 0
    outer loop
      vertex 0 109.75 3
      vertex 6 109.75 4
      vertex 29 109.75 3
    endloop
  endfacet
  facet normal 0 1 0
    outer loop
      vertex 6 109.75 4
      vertex 0 109.75 3
      vertex 0 109.75 4
    endloop
  endfacet
  facet normal 0 1 -0
    outer loop
      vertex 29 120.01 0
      vertex 26 120.01 4
      vertex 29 120.01 4
    endloop
  endfacet
  facet normal 0 1 0
    outer loop
      vertex 26 120.01 4
      vertex 29 120.01 0
      vertex 6 120.01 4
    endloop
  endfacet
  facet normal 0 1 0
    outer loop
      vertex 0 120.01 0
      vertex 6 120.01 4
      vertex 29 120.01 0
    endloop
  endfacet
  facet normal 0 1 0
    outer loop
      vertex 6 120.01 4
      vertex 0 120.01 0
      vertex 0 120.01 4
    endloop
  endfacet
  facet normal 0 1 0
    outer loop
      vertex 6 120.01 5
      vertex 6 120.01 4
      vertex 3 120.01 5
    endloop
  endfacet
  facet normal 0 1 -0
    outer loop
      vertex 3 120.01 5
      vertex 0 120.01 7
      vertex 3 120.01 7
    endloop
  endfacet
  facet normal 0 1 0
    outer loop
      vertex 3 120.01 5
      vertex 0 120.01 4
      vertex 0 120.01 7
    endloop
  endfacet
  facet normal 0 1 0
    outer loop
      vertex 0 120.01 4
      vertex 3 120.01 5
      vertex 6 120.01 4
    endloop
  endfacet
  facet normal 0 1 -0
    outer loop
      vertex 3 109.75 5
      vertex 0 109.75 6
      vertex 3 109.75 6
    endloop
  endfacet
  facet normal 0 1 0
    outer loop
      vertex 0 109.75 6
      vertex 3 109.75 5
      vertex 0 109.75 5
    endloop
  endfacet
  facet normal 0 0 -1
    outer loop
      vertex 0 109.75 6
      vertex 3 118.25 6
      vertex 3 109.75 6
    endloop
  endfacet
  facet normal -0 0 -1
    outer loop
      vertex 3 118.25 6
      vertex 0 109.75 6
      vertex 0 118.25 6
    endloop
  endfacet
  facet normal 0 -1 0
    outer loop
      vertex 0 118.25 5
      vertex 3 118.25 6
      vertex 0 118.25 6
    endloop
  endfacet
  facet normal 0 -1 -0
    outer loop
      vertex 3 118.25 6
      vertex 0 118.25 5
      vertex 3 118.25 5
    endloop
  endfacet
  facet normal 0 1 -0
    outer loop
      vertex 29 120.01 4
      vertex 26 120.01 5
      vertex 29 120.01 5
    endloop
  endfacet
  facet normal 0 1 0
    outer loop
      vertex 26 120.01 5
      vertex 29 120.01 4
      vertex 26 120.01 4
    endloop
  endfacet
endsolid OpenSCAD_Model
